EESchema Schematic File Version 4
EELAYER 30 0
EELAYER END
$Descr A4 8268 11693 portrait
encoding utf-8
Sheet 2 3
Title "AMP-DR"
Date "2021-11-21"
Rev "3.1"
Comp "T5! DIY Audio"
Comment1 "HttPS://t-5.eu/hp/AMP-DR"
Comment2 ""
Comment3 ""
Comment4 ""
$EndDescr
Wire Wire Line
	1450 3200 1450 3100
$Comp
L power:GND #PWR0202
U 1 1 5FCFA546
P 1450 3200
F 0 "#PWR0202" H 1450 2950 50  0001 C CNN
F 1 "GND" H 1455 3027 50  0000 C CNN
F 2 "" H 1450 3200 50  0001 C CNN
F 3 "" H 1450 3200 50  0001 C CNN
	1    1450 3200
	1    0    0    -1  
$EndComp
Text Notes 650  2700 0    50   ~ 0
Pin 1\nconnected\nto shield\nand case
Connection ~ 6050 4700
Wire Wire Line
	6050 4700 6150 4700
Connection ~ 6050 3400
Wire Wire Line
	6150 3400 6050 3400
Connection ~ 6050 2400
Wire Wire Line
	6050 2400 6150 2400
Connection ~ 6050 5700
Wire Wire Line
	6050 5700 6150 5700
Connection ~ 6050 6700
Wire Wire Line
	6050 6700 6150 6700
Connection ~ 6050 8700
Wire Wire Line
	6150 8700 6050 8700
Connection ~ 6050 7700
Wire Wire Line
	6050 7700 6150 7700
Connection ~ 6050 9700
Wire Wire Line
	6150 9700 6050 9700
Wire Wire Line
	3850 2900 3850 3100
Wire Wire Line
	3650 2900 3850 2900
Wire Wire Line
	2900 2900 2900 2950
Wire Wire Line
	3650 2900 3650 2950
Connection ~ 3650 2900
Wire Wire Line
	3650 2900 2900 2900
Wire Wire Line
	2900 3300 2900 3750
Connection ~ 2900 3300
Wire Wire Line
	3650 3300 2900 3300
Wire Wire Line
	3650 3850 3750 3850
Connection ~ 3650 3850
Wire Wire Line
	3650 3750 3650 3850
Connection ~ 3650 3300
Wire Wire Line
	3650 3300 3650 3450
Wire Wire Line
	3650 3300 3650 3250
Wire Wire Line
	3800 3100 3850 3100
Wire Wire Line
	3650 2350 3750 2350
Connection ~ 3650 2350
Wire Wire Line
	3650 2450 3650 2350
Wire Wire Line
	3600 3850 3650 3850
Wire Wire Line
	2900 3250 2900 3300
Wire Wire Line
	2900 2450 2900 2900
Wire Wire Line
	3600 2350 3650 2350
Wire Wire Line
	6800 3300 6800 3400
Connection ~ 6800 3300
Wire Wire Line
	6900 3300 6800 3300
Wire Wire Line
	7150 3300 7100 3300
$Comp
L Device:Net-Tie_2 NT202
U 1 1 5FA3551F
P 7000 3300
F 0 "NT202" H 7000 3250 50  0000 C CNN
F 1 "NT" H 7000 3150 50  0000 C CNN
F 2 "T5_w11:NetTie-2_SMD_Pad2.0mm" H 7000 3300 50  0001 C CNN
F 3 "~" H 7000 3300 50  0001 C CNN
	1    7000 3300
	1    0    0    -1  
$EndComp
Wire Wire Line
	6800 3100 6800 3300
Wire Notes Line
	850  6200 850  5050
Wire Notes Line
	3650 6200 850  6200
Wire Notes Line
	3650 5050 3650 6200
Wire Notes Line
	850  5050 3650 5050
Text Notes 950  6100 0    50   ~ 0
NOTE ABOUT CALCULATING C201:\n====================\n\n1. choose gain factor [G = (2 * R207 + R210) / R210]\n2. choose R202 (R202 ≈ 1kΩ * 18V / [desired offset range] / G)\n3. choose C201 (C201 ≈ 1kΩ / Fg / 6.28 / 2.2MΩ / R202)\n\nA script to exactly calculate C201/R202/R205/R206 for a desired\nG, Fg and offset range can be found in the repositor in /_python\n\nShown values are for G=3.16 (10dB), Fg=1Hz and +/-0.1V max\noffset range
$Comp
L Connector:XLR3 J203
U 1 1 5FA059D8
P 1200 2250
F 0 "J203" H 1100 2650 50  0000 L CNN
F 1 "Input" H 1100 2550 50  0000 L CNN
F 2 "SamacSys_Parts:NC3FAAH10" H 1200 2250 50  0001 C CNN
F 3 " ~" H 1200 2250 50  0001 C CNN
	1    1200 2250
	1    0    0    -1  
$EndComp
$Comp
L Device:Net-Tie_2 NT201
U 1 1 5FA0A32C
P 5200 3200
F 0 "NT201" V 5154 3244 50  0000 L CNN
F 1 "NT" V 5245 3244 50  0000 L CNN
F 2 "T5_w11:NetTie-2_SMD_Pad2.0mm" H 5200 3200 50  0001 C CNN
F 3 "~" H 5200 3200 50  0001 C CNN
	1    5200 3200
	0    1    1    0   
$EndComp
Connection ~ 4150 950 
$Comp
L Connector_Generic:Conn_01x01 J201
U 1 1 5FFE38F4
P 4150 750
F 0 "J201" V 4114 662 50  0000 R CNN
F 1 "Pad" V 4023 662 50  0000 R CNN
F 2 "Connector_Pin:Pin_D1.0mm_L10.0mm" H 4150 750 50  0001 C CNN
F 3 "~" H 4150 750 50  0001 C CNN
	1    4150 750 
	0    -1   -1   0   
$EndComp
$Comp
L Connector_Generic:Conn_01x01 J202
U 1 1 5FFE08B1
P 5200 750
F 0 "J202" V 5164 662 50  0000 R CNN
F 1 "Pad" V 5073 662 50  0000 R CNN
F 2 "Connector_Pin:Pin_D1.0mm_L10.0mm" H 5200 750 50  0001 C CNN
F 3 "~" H 5200 750 50  0001 C CNN
	1    5200 750 
	0    -1   -1   0   
$EndComp
Connection ~ 5200 2350
Wire Wire Line
	5200 1650 5200 2350
Wire Wire Line
	4950 2500 5200 2500
Connection ~ 4150 2500
Wire Wire Line
	4650 2500 4150 2500
$Comp
L Device:R R206
U 1 1 5FF61BE0
P 4800 2500
F 0 "R206" V 4900 2500 50  0000 C CNN
F 1 "2k87" V 5000 2500 50  0000 C CNN
F 2 "Resistor_SMD:R_1206_3216Metric" V 4730 2500 50  0001 C CNN
F 3 "~" H 4800 2500 50  0001 C CNN
	1    4800 2500
	0    1    1    0   
$EndComp
Wire Wire Line
	1200 3950 1600 3950
Wire Wire Line
	1200 3950 1200 2550
Wire Wire Line
	1600 2250 1500 2250
Wire Wire Line
	4650 2350 4150 2350
$Comp
L power:GND #PWR0201
U 1 1 5FD7F824
P 5200 3300
F 0 "#PWR0201" H 5200 3050 50  0001 C CNN
F 1 "GND" V 5205 3172 50  0000 R CNN
F 2 "" H 5200 3300 50  0001 C CNN
F 3 "" H 5200 3300 50  0001 C CNN
	1    5200 3300
	-1   0    0    -1  
$EndComp
Wire Wire Line
	5200 2350 5200 2500
Wire Wire Line
	4950 2350 5200 2350
$Comp
L Device:R R205
U 1 1 5FD7CBA0
P 4800 2350
F 0 "R205" V 4700 2350 50  0000 C CNN
F 1 "1k58" V 4600 2350 50  0000 C CNN
F 2 "Resistor_SMD:R_1206_3216Metric" V 4730 2350 50  0001 C CNN
F 3 "~" H 4800 2350 50  0001 C CNN
	1    4800 2350
	0    1    1    0   
$EndComp
Wire Wire Line
	7000 3000 7000 2900
Wire Wire Line
	6550 3000 6800 3000
Wire Wire Line
	6800 3000 6800 2900
Connection ~ 6550 2000
Wire Wire Line
	6550 950  6550 1300
Wire Wire Line
	6050 950  6550 950 
Connection ~ 4150 1550
Wire Wire Line
	4150 1550 4150 1950
$Comp
L Device:R R201
U 1 1 5FB9F703
P 5900 950
F 0 "R201" V 5693 950 50  0000 C CNN
F 1 "2M2" V 5784 950 50  0000 C CNN
F 2 "Resistor_SMD:R_1206_3216Metric" V 5830 950 50  0001 C CNN
F 3 "~" H 5900 950 50  0001 C CNN
	1    5900 950 
	0    1    1    0   
$EndComp
Wire Wire Line
	5750 950  5200 950 
Wire Wire Line
	5100 1650 5200 1650
Wire Wire Line
	5100 1450 5200 1450
Wire Wire Line
	4500 1550 4150 1550
Wire Wire Line
	4850 950  5200 950 
$Comp
L Device:C C201
U 1 1 5FB36658
P 4700 950
F 0 "C201" V 4952 950 50  0000 C CNN
F 1 "1n3" V 4861 950 50  0000 C CNN
F 2 "Capacitor_SMD:C_1812_4532Metric" H 4738 800 50  0001 C CNN
F 3 "~" H 4700 950 50  0001 C CNN
	1    4700 950 
	0    1    -1   0   
$EndComp
Connection ~ 5200 950 
Wire Wire Line
	5200 950  5200 1450
Wire Wire Line
	4150 950  4550 950 
Connection ~ 5450 8300
Connection ~ 5450 7300
Wire Wire Line
	5450 7300 5450 8300
Connection ~ 6550 7300
Wire Wire Line
	6550 7300 6550 8300
Connection ~ 2550 3950
Wire Wire Line
	3000 3950 2550 3950
$Comp
L Device:R R215
U 1 1 60439342
P 1750 3950
F 0 "R215" V 1543 3950 50  0000 C CNN
F 1 "100" V 1634 3950 50  0000 C CNN
F 2 "Resistor_SMD:R_1206_3216Metric" V 1680 3950 50  0001 C CNN
F 3 "~" H 1750 3950 50  0001 C CNN
	1    1750 3950
	0    1    1    0   
$EndComp
Wire Wire Line
	1900 3950 1950 3950
Wire Wire Line
	1950 3950 2550 3950
Connection ~ 1950 3950
Wire Wire Line
	1950 3800 1950 3950
Wire Wire Line
	2550 3100 2550 3300
Connection ~ 2550 3100
Wire Wire Line
	2450 3100 2550 3100
$Comp
L Device:R R209
U 1 1 5FB4C0EC
P 2300 3100
F 0 "R209" V 2093 3100 50  0000 C CNN
F 1 "2M2" V 2184 3100 50  0000 C CNN
F 2 "Resistor_SMD:R_1206_3216Metric" V 2230 3100 50  0001 C CNN
F 3 "~" H 2300 3100 50  0001 C CNN
	1    2300 3100
	0    1    1    0   
$EndComp
Wire Wire Line
	2550 2900 2550 3100
$Comp
L Device:C C203
U 1 1 60440B92
P 1950 3650
F 0 "C203" H 2065 3696 50  0000 L CNN
F 1 "470p" H 2065 3605 50  0000 L CNN
F 2 "Capacitor_SMD:C_1206_3216Metric" H 1988 3500 50  0001 C CNN
F 3 "~" H 1950 3650 50  0001 C CNN
	1    1950 3650
	1    0    0    -1  
$EndComp
Connection ~ 2550 2250
Wire Wire Line
	2550 2250 3000 2250
Wire Wire Line
	2900 3750 3000 3750
Wire Wire Line
	3000 2450 2900 2450
$Comp
L Device:R R212
U 1 1 6067EBF7
P 3650 3600
F 0 "R212" H 3450 3550 50  0000 C CNN
F 1 "1k" H 3500 3650 50  0000 C CNN
F 2 "Resistor_SMD:R_1206_3216Metric" V 3580 3600 50  0001 C CNN
F 3 "~" H 3650 3600 50  0001 C CNN
	1    3650 3600
	-1   0    0    1   
$EndComp
$Comp
L Device:R R207
U 1 1 6067E24B
P 3650 2600
F 0 "R207" H 3450 2550 50  0000 C CNN
F 1 "1k" H 3500 2650 50  0000 C CNN
F 2 "Resistor_SMD:R_1206_3216Metric" V 3580 2600 50  0001 C CNN
F 3 "~" H 3650 2600 50  0001 C CNN
	1    3650 2600
	-1   0    0    1   
$EndComp
Wire Wire Line
	7150 3100 6800 3100
Wire Wire Line
	7100 3000 7150 3000
Connection ~ 7100 3000
Wire Wire Line
	7100 3200 7150 3200
Wire Wire Line
	7100 3000 7100 3200
Wire Wire Line
	7000 3000 7100 3000
$Comp
L SamacSys_Parts:NL4MD-H J204
U 1 1 6013B16E
P 7150 3300
F 0 "J204" H 7450 2750 50  0000 C CNN
F 1 "Output" H 7450 2850 50  0000 C CNN
F 2 "SamacSys_Parts:NL4MDH" H 8000 3400 50  0001 L CNN
F 3 "http://www.neutrik.us/en-us/speakon/speakon-chassis-connectors/nl4md-h" H 8000 3300 50  0001 L CNN
F 4 "Loudspeaker Connectors 4 POLE PCB HORIZONTL" H 8000 3200 50  0001 L CNN "Description"
F 5 "31" H 8000 3100 50  0001 L CNN "Height"
F 6 "568-NL4MD-H" H 8000 3000 50  0001 L CNN "Mouser Part Number"
F 7 "https://www.mouser.co.uk/ProductDetail/Neutrik/NL4MD-H?qs=erV61lVMmP8ogh%252BAHSZfqA%3D%3D" H 8000 2900 50  0001 L CNN "Mouser Price/Stock"
F 8 "Neutrik" H 8000 2800 50  0001 L CNN "Manufacturer_Name"
F 9 "NL4MD-H" H 8000 2700 50  0001 L CNN "Manufacturer_Part_Number"
	1    7150 3300
	1    0    0    1   
$EndComp
Wire Wire Line
	1950 2250 2550 2250
Connection ~ 1950 2250
Wire Wire Line
	1950 2250 1950 2400
$Comp
L Device:C C202
U 1 1 6045BEF2
P 1950 2550
F 0 "C202" H 2065 2596 50  0000 L CNN
F 1 "470p" H 2065 2505 50  0000 L CNN
F 2 "Capacitor_SMD:C_1206_3216Metric" H 1988 2400 50  0001 C CNN
F 3 "~" H 1950 2550 50  0001 C CNN
	1    1950 2550
	1    0    0    -1  
$EndComp
Wire Wire Line
	1900 2250 1950 2250
$Comp
L Device:R R203
U 1 1 6042B4E0
P 1750 2250
F 0 "R203" V 1543 2250 50  0000 C CNN
F 1 "100" V 1634 2250 50  0000 C CNN
F 2 "Resistor_SMD:R_1206_3216Metric" V 1680 2250 50  0001 C CNN
F 3 "~" H 1750 2250 50  0001 C CNN
	1    1750 2250
	0    1    1    0   
$EndComp
Text GLabel 6800 2900 1    50   Input ~ 0
RY_IN
Text GLabel 7000 2900 1    50   Input ~ 0
RY_OUT
Connection ~ 4150 2350
Wire Wire Line
	4150 2250 4150 2350
$Comp
L Device:R R202
U 1 1 5FBCE766
P 4150 2100
F 0 "R202" V 3943 2100 50  0000 C CNN
F 1 "53k6" V 4034 2100 50  0000 C CNN
F 2 "Resistor_SMD:R_1206_3216Metric" V 4080 2100 50  0001 C CNN
F 3 "~" H 4150 2100 50  0001 C CNN
	1    4150 2100
	-1   0    0    1   
$EndComp
Connection ~ 6550 8300
Wire Wire Line
	4150 1550 4150 950 
$Comp
L power:GND #PWR0203
U 1 1 5FADC251
P 6800 3400
F 0 "#PWR0203" H 6800 3150 50  0001 C CNN
F 1 "GND" H 6805 3227 50  0000 C CNN
F 2 "" H 6800 3400 50  0001 C CNN
F 3 "" H 6800 3400 50  0001 C CNN
	1    6800 3400
	1    0    0    -1  
$EndComp
Wire Wire Line
	5450 9300 5750 9300
Wire Wire Line
	5450 8300 5450 9300
Wire Wire Line
	5450 8300 5750 8300
Wire Wire Line
	6550 9300 6550 8300
Wire Wire Line
	6350 9300 6550 9300
Wire Wire Line
	6350 8300 6550 8300
Wire Wire Line
	5950 8900 5850 8900
Connection ~ 5950 9700
Wire Wire Line
	5850 9700 5950 9700
Text GLabel 5850 9700 0    50   Input ~ 0
-18V
Wire Wire Line
	5950 8900 5950 9000
Text GLabel 5850 8900 0    50   Input ~ 0
+18V
Wire Wire Line
	6150 9700 6150 9600
Wire Wire Line
	6050 9700 6050 9600
Wire Wire Line
	5950 9700 6050 9700
Wire Wire Line
	5950 9600 5950 9700
$Comp
L t-5:LME49600 U212
U 1 1 5FAA76EF
P 6050 9300
F 0 "U212" H 6100 9550 50  0000 L CNN
F 1 "LME49600" H 6100 9450 50  0000 L CNN
F 2 "SamacSys_Parts:KTT0005B" H 6100 9350 50  0001 C CNN
F 3 "http://www.ti.com/lit/ds/symlink/lm741.pdf" H 6200 9450 50  0001 C CNN
	1    6050 9300
	1    0    0    -1  
$EndComp
Wire Wire Line
	5950 7900 5850 7900
Connection ~ 5950 8700
Wire Wire Line
	5850 8700 5950 8700
Text GLabel 5850 8700 0    50   Input ~ 0
-18V
Wire Wire Line
	5950 7900 5950 8000
Text GLabel 5850 7900 0    50   Input ~ 0
+18V
Wire Wire Line
	6150 8700 6150 8600
Wire Wire Line
	6050 8700 6050 8600
Wire Wire Line
	5950 8700 6050 8700
Wire Wire Line
	5950 8600 5950 8700
$Comp
L t-5:LME49600 U211
U 1 1 5FAA76D9
P 6050 8300
F 0 "U211" H 6100 8550 50  0000 L CNN
F 1 "LME49600" H 6100 8450 50  0000 L CNN
F 2 "SamacSys_Parts:KTT0005B" H 6100 8350 50  0001 C CNN
F 3 "http://www.ti.com/lit/ds/symlink/lm741.pdf" H 6200 8450 50  0001 C CNN
	1    6050 8300
	1    0    0    -1  
$EndComp
Wire Wire Line
	4050 2350 4150 2350
$Comp
L Device:R R214
U 1 1 5FA94965
P 3900 3850
F 0 "R214" V 4000 3850 50  0000 C CNN
F 1 "1k" V 4100 3850 50  0000 C CNN
F 2 "Resistor_SMD:R_1206_3216Metric" V 3830 3850 50  0001 C CNN
F 3 "~" H 3900 3850 50  0001 C CNN
	1    3900 3850
	0    1    1    0   
$EndComp
Connection ~ 5450 6300
Connection ~ 5450 5300
Wire Wire Line
	5450 5300 5450 6300
Connection ~ 6550 5300
Wire Wire Line
	6550 5300 6550 5800
Wire Wire Line
	5450 7300 5750 7300
Wire Wire Line
	5450 6300 5450 7300
Wire Wire Line
	5450 6300 5750 6300
Connection ~ 6550 6300
Wire Wire Line
	6550 7300 6550 6300
Wire Wire Line
	6350 7300 6550 7300
Wire Wire Line
	6350 6300 6550 6300
Wire Wire Line
	5950 6900 5850 6900
Connection ~ 5950 7700
Wire Wire Line
	5850 7700 5950 7700
Text GLabel 5850 7700 0    50   Input ~ 0
-18V
Wire Wire Line
	5950 6900 5950 7000
Text GLabel 5850 6900 0    50   Input ~ 0
+18V
Wire Wire Line
	6150 7700 6150 7600
Wire Wire Line
	6050 7700 6050 7600
Wire Wire Line
	5950 7700 6050 7700
Wire Wire Line
	5950 7600 5950 7700
$Comp
L t-5:LME49600 U210
U 1 1 5FA94931
P 6050 7300
F 0 "U210" H 6100 7550 50  0000 L CNN
F 1 "LME49600" H 6100 7450 50  0000 L CNN
F 2 "SamacSys_Parts:KTT0005B" H 6100 7350 50  0001 C CNN
F 3 "http://www.ti.com/lit/ds/symlink/lm741.pdf" H 6200 7450 50  0001 C CNN
	1    6050 7300
	1    0    0    -1  
$EndComp
Wire Wire Line
	5950 5900 5850 5900
Connection ~ 5950 6700
Wire Wire Line
	5850 6700 5950 6700
Text GLabel 5850 6700 0    50   Input ~ 0
-18V
Wire Wire Line
	5950 5900 5950 6000
Text GLabel 5850 5900 0    50   Input ~ 0
+18V
Wire Wire Line
	6150 6700 6150 6600
Wire Wire Line
	6050 6700 6050 6600
Wire Wire Line
	5950 6700 6050 6700
Wire Wire Line
	5950 6600 5950 6700
$Comp
L t-5:LME49600 U209
U 1 1 5FA9491B
P 6050 6300
F 0 "U209" H 6100 6550 50  0000 L CNN
F 1 "LME49600" H 6100 6450 50  0000 L CNN
F 2 "SamacSys_Parts:KTT0005B" H 6100 6350 50  0001 C CNN
F 3 "http://www.ti.com/lit/ds/symlink/lm741.pdf" H 6200 6450 50  0001 C CNN
	1    6050 6300
	1    0    0    -1  
$EndComp
Connection ~ 5450 4300
Wire Wire Line
	5450 5300 5750 5300
Wire Wire Line
	5450 4300 5450 5300
Wire Wire Line
	5450 4300 5750 4300
Connection ~ 5450 3000
Wire Wire Line
	5450 3000 5750 3000
Wire Wire Line
	5450 2000 5450 3000
Wire Wire Line
	5750 2000 5450 2000
$Comp
L Device:R R208
U 1 1 5FA948E3
P 2550 2750
F 0 "R208" H 2620 2796 50  0000 L CNN
F 1 "10k" H 2620 2705 50  0000 L CNN
F 2 "Resistor_SMD:R_1206_3216Metric" V 2480 2750 50  0001 C CNN
F 3 "~" H 2550 2750 50  0001 C CNN
	1    2550 2750
	1    0    0    -1  
$EndComp
$Comp
L Device:R R211
U 1 1 5FA948DD
P 2550 3450
F 0 "R211" H 2620 3496 50  0000 L CNN
F 1 "10k" H 2620 3405 50  0000 L CNN
F 2 "Resistor_SMD:R_1206_3216Metric" V 2480 3450 50  0001 C CNN
F 3 "~" H 2550 3450 50  0001 C CNN
	1    2550 3450
	1    0    0    -1  
$EndComp
Wire Wire Line
	2550 2250 2550 2600
Wire Wire Line
	2550 3950 2550 3600
$Comp
L Device:R R204
U 1 1 5FA948BC
P 3900 2350
F 0 "R204" V 3693 2350 50  0000 C CNN
F 1 "1k" V 3784 2350 50  0000 C CNN
F 2 "Resistor_SMD:R_1206_3216Metric" V 3830 2350 50  0001 C CNN
F 3 "~" H 3900 2350 50  0001 C CNN
	1    3900 2350
	0    1    1    0   
$EndComp
Wire Wire Line
	4150 2350 4150 2500
$Comp
L Device:R R213
U 1 1 5FA948A1
P 4700 5150
F 0 "R213" V 4800 5150 50  0000 C CNN
F 1 "1k" V 4900 5150 50  0000 C CNN
F 2 "Resistor_SMD:R_1206_3216Metric" V 4630 5150 50  0001 C CNN
F 3 "~" H 4700 5150 50  0001 C CNN
	1    4700 5150
	0    1    1    0   
$EndComp
Connection ~ 6550 4300
Connection ~ 6550 3000
Wire Wire Line
	6550 2000 6550 3000
Wire Wire Line
	6350 2000 6550 2000
Wire Wire Line
	6550 3000 6350 3000
Wire Wire Line
	6550 5300 6550 4300
Wire Wire Line
	6350 5300 6550 5300
Wire Wire Line
	6350 4300 6550 4300
Wire Wire Line
	5950 4900 5850 4900
Connection ~ 5950 5700
Wire Wire Line
	5850 5700 5950 5700
Text GLabel 5850 5700 0    50   Input ~ 0
-18V
Wire Wire Line
	5950 4900 5950 5000
Text GLabel 5850 4900 0    50   Input ~ 0
+18V
Wire Wire Line
	6150 5700 6150 5600
Wire Wire Line
	6050 5700 6050 5600
Wire Wire Line
	5950 5700 6050 5700
Wire Wire Line
	5950 5600 5950 5700
$Comp
L t-5:LME49600 U208
U 1 1 5FA94878
P 6050 5300
F 0 "U208" H 6100 5550 50  0000 L CNN
F 1 "LME49600" H 6100 5450 50  0000 L CNN
F 2 "SamacSys_Parts:KTT0005B" H 6100 5350 50  0001 C CNN
F 3 "http://www.ti.com/lit/ds/symlink/lm741.pdf" H 6200 5450 50  0001 C CNN
	1    6050 5300
	1    0    0    -1  
$EndComp
Wire Wire Line
	5950 3900 5850 3900
Connection ~ 5950 4700
Wire Wire Line
	5850 4700 5950 4700
Text GLabel 5850 4700 0    50   Input ~ 0
-18V
Wire Wire Line
	5950 3900 5950 4000
Text GLabel 5850 3900 0    50   Input ~ 0
+18V
Wire Wire Line
	6150 4700 6150 4600
Wire Wire Line
	6050 4700 6050 4600
Wire Wire Line
	5950 4700 6050 4700
Wire Wire Line
	5950 4600 5950 4700
$Comp
L t-5:LME49600 U207
U 1 1 5FA94862
P 6050 4300
F 0 "U207" H 6100 4550 50  0000 L CNN
F 1 "LME49600" H 6100 4450 50  0000 L CNN
F 2 "SamacSys_Parts:KTT0005B" H 6100 4350 50  0001 C CNN
F 3 "http://www.ti.com/lit/ds/symlink/lm741.pdf" H 6200 4450 50  0001 C CNN
	1    6050 4300
	1    0    0    -1  
$EndComp
Wire Wire Line
	5950 2600 5850 2600
Connection ~ 5950 3400
Wire Wire Line
	5850 3400 5950 3400
Text GLabel 5850 3400 0    50   Input ~ 0
-18V
Wire Wire Line
	5950 2600 5950 2700
Text GLabel 5850 2600 0    50   Input ~ 0
+18V
Wire Wire Line
	6150 3400 6150 3300
Wire Wire Line
	6050 3400 6050 3300
Wire Wire Line
	5950 3400 6050 3400
Wire Wire Line
	5950 3300 5950 3400
$Comp
L t-5:LME49600 U204
U 1 1 5FA9484C
P 6050 3000
F 0 "U204" H 6100 3250 50  0000 L CNN
F 1 "LME49600" H 6100 3150 50  0000 L CNN
F 2 "SamacSys_Parts:KTT0005B" H 6100 3050 50  0001 C CNN
F 3 "http://www.ti.com/lit/ds/symlink/lm741.pdf" H 6200 3150 50  0001 C CNN
	1    6050 3000
	1    0    0    -1  
$EndComp
Wire Wire Line
	5950 1600 5850 1600
Connection ~ 5950 2400
Wire Wire Line
	5850 2400 5950 2400
Text GLabel 5850 2400 0    50   Input ~ 0
-18V
Wire Wire Line
	5950 1600 5950 1700
Text GLabel 5850 1600 0    50   Input ~ 0
+18V
Wire Wire Line
	6150 2400 6150 2300
Wire Wire Line
	6050 2400 6050 2300
Wire Wire Line
	5950 2400 6050 2400
Wire Wire Line
	5950 2300 5950 2400
$Comp
L t-5:LME49600 U202
U 1 1 5FA94836
P 6050 2000
F 0 "U202" H 6100 2250 50  0000 L CNN
F 1 "LME49600" H 6100 2150 50  0000 L CNN
F 2 "SamacSys_Parts:KTT0005B" H 6100 2050 50  0001 C CNN
F 3 "http://www.ti.com/lit/ds/symlink/lm741.pdf" H 6200 2150 50  0001 C CNN
	1    6050 2000
	1    0    0    -1  
$EndComp
$Comp
L AMP-DR-rescue:OPA1611-t-5 U203
U 1 1 6044335B
P 3300 2350
AR Path="/6044335B" Ref="U203"  Part="1" 
AR Path="/5F9C2156/6044335B" Ref="U203"  Part="1" 
F 0 "U203" H 2800 2650 50  0000 L CNN
F 1 "OPA1611" H 2650 2550 50  0000 L CNN
F 2 "Package_SO:SOIC-8_3.9x4.9mm_P1.27mm" H 3350 2400 50  0001 C CNN
F 3 "http://www.ti.com/lit/ds/symlink/lm741.pdf" H 3450 2500 50  0001 C CNN
	1    3300 2350
	1    0    0    -1  
$EndComp
$Comp
L AMP-DR-rescue:OPA1611-t-5 U206
U 1 1 60446652
P 3300 3850
AR Path="/60446652" Ref="U206"  Part="1" 
AR Path="/5F9C2156/60446652" Ref="U206"  Part="1" 
F 0 "U206" H 2850 4050 50  0000 L CNN
F 1 "OPA1611" H 2750 4150 50  0000 L CNN
F 2 "Package_SO:SOIC-8_3.9x4.9mm_P1.27mm" H 3350 3900 50  0001 C CNN
F 3 "http://www.ti.com/lit/ds/symlink/lm741.pdf" H 3450 4000 50  0001 C CNN
	1    3300 3850
	1    0    0    1   
$EndComp
NoConn ~ 3300 2050
NoConn ~ 3300 2650
NoConn ~ 3400 2650
NoConn ~ 3300 3550
NoConn ~ 3400 3550
NoConn ~ 3300 4150
Text GLabel 3250 1900 2    50   Input ~ 0
+18V
Text GLabel 3250 2800 2    50   Input ~ 0
-18V
Text GLabel 3250 3400 2    50   Input ~ 0
-18V
Text GLabel 3250 4300 2    50   Input ~ 0
+18V
Wire Wire Line
	3250 4300 3200 4300
Wire Wire Line
	3200 4300 3200 4150
Wire Wire Line
	3200 3550 3200 3400
Wire Wire Line
	3200 3400 3250 3400
Wire Wire Line
	3250 1900 3200 1900
Wire Wire Line
	3200 1900 3200 2050
Wire Wire Line
	3200 2650 3200 2800
Wire Wire Line
	3200 2800 3250 2800
$Comp
L AMP-DR-rescue:OPA1611-t-5 U205
U 1 1 605D84EC
P 4850 4300
AR Path="/605D84EC" Ref="U205"  Part="1" 
AR Path="/5F9C2156/605D84EC" Ref="U205"  Part="1" 
F 0 "U205" H 5050 4200 50  0000 L CNN
F 1 "OPA1611" H 5050 4100 50  0000 L CNN
F 2 "Package_SO:SOIC-8_3.9x4.9mm_P1.27mm" H 4900 4350 50  0001 C CNN
F 3 "http://www.ti.com/lit/ds/symlink/lm741.pdf" H 5000 4450 50  0001 C CNN
	1    4850 4300
	1    0    0    -1  
$EndComp
NoConn ~ 4850 4000
NoConn ~ 4850 4600
NoConn ~ 4950 4600
Text GLabel 4800 3850 2    50   Input ~ 0
+18V
Text GLabel 4800 4750 2    50   Input ~ 0
-18V
Wire Wire Line
	4800 3850 4750 3850
Wire Wire Line
	4750 3850 4750 4000
Wire Wire Line
	4750 4600 4750 4750
Wire Wire Line
	4750 4750 4800 4750
Wire Wire Line
	4050 3850 4150 3850
$Comp
L AMP-DR-rescue:OPA1611-t-5 U201
U 1 1 60650388
P 4800 1550
AR Path="/60650388" Ref="U201"  Part="1" 
AR Path="/5F9C2156/60650388" Ref="U201"  Part="1" 
F 0 "U201" H 4900 1800 50  0000 L CNN
F 1 "OPA827" H 4900 1700 50  0000 L CNN
F 2 "Package_SO:SOIC-8_3.9x4.9mm_P1.27mm" H 4850 1600 50  0001 C CNN
F 3 "http://www.ti.com/lit/ds/symlink/lm741.pdf" H 4950 1700 50  0001 C CNN
	1    4800 1550
	-1   0    0    1   
$EndComp
NoConn ~ 4800 1850
NoConn ~ 4800 1250
NoConn ~ 4700 1250
Text GLabel 4850 2000 0    50   Input ~ 0
+18V
Text GLabel 4850 1150 0    50   Input ~ 0
-18V
Wire Wire Line
	4850 2000 4900 2000
Wire Wire Line
	4900 2000 4900 1850
Wire Wire Line
	4900 1250 4900 1150
Wire Wire Line
	4900 1150 4850 1150
Connection ~ 2900 2900
Wire Wire Line
	5200 3100 5200 3050
Connection ~ 5200 2500
Wire Wire Line
	3650 2750 3650 2900
Wire Wire Line
	6550 3000 6550 4300
Wire Wire Line
	5450 3000 5450 4300
Wire Wire Line
	5450 4300 5150 4300
$Comp
L Device:C C205
U 1 1 6072C90C
P 4700 5800
F 0 "C205" V 4448 5800 50  0000 C CNN
F 1 "10p" V 4539 5800 50  0000 C CNN
F 2 "Capacitor_SMD:C_1206_3216Metric" H 4738 5650 50  0001 C CNN
F 3 "~" H 4700 5800 50  0001 C CNN
	1    4700 5800
	0    1    1    0   
$EndComp
$Comp
L Device:C C204
U 1 1 6072D517
P 4800 3050
F 0 "C204" V 4548 3050 50  0000 C CNN
F 1 "10p" V 4639 3050 50  0000 C CNN
F 2 "Capacitor_SMD:C_1206_3216Metric" H 4838 2900 50  0001 C CNN
F 3 "~" H 4800 3050 50  0001 C CNN
	1    4800 3050
	0    1    1    0   
$EndComp
Wire Wire Line
	4950 3050 5200 3050
Connection ~ 5200 3050
Wire Wire Line
	5200 3050 5200 2500
Wire Wire Line
	4650 3050 4250 3050
Wire Wire Line
	4150 2500 4150 3050
Wire Wire Line
	4150 3850 4150 4400
Wire Wire Line
	4550 4200 4250 4200
Wire Wire Line
	4250 4200 4250 3050
Connection ~ 4250 3050
Wire Wire Line
	4250 3050 4150 3050
Wire Wire Line
	4850 5150 5050 5150
Wire Wire Line
	5050 5150 5050 5800
Wire Wire Line
	5050 5800 4850 5800
Wire Wire Line
	4550 5800 4150 5800
Wire Wire Line
	4150 5800 4150 5150
Connection ~ 4150 4400
Wire Wire Line
	4150 4400 4550 4400
Wire Wire Line
	5050 5800 6550 5800
Connection ~ 5050 5800
Connection ~ 6550 5800
Wire Wire Line
	6550 5800 6550 6300
Wire Wire Line
	4550 5150 4150 5150
Connection ~ 4150 5150
Wire Wire Line
	4150 5150 4150 4400
$Comp
L power:GND #PWR0102
U 1 1 6057081A
P 850 2250
F 0 "#PWR0102" H 850 2000 50  0001 C CNN
F 1 "GND" H 855 2077 50  0000 C CNN
F 2 "" H 850 2250 50  0001 C CNN
F 3 "" H 850 2250 50  0001 C CNN
	1    850  2250
	0    1    1    0   
$EndComp
Wire Wire Line
	850  2250 900  2250
$Comp
L Connector:TestPoint TP201
U 1 1 608E944B
P 5450 1300
F 0 "TP201" V 5404 1488 50  0000 L CNN
F 1 "GND" V 5495 1488 50  0000 L CNN
F 2 "TestPoint:TestPoint_Pad_D1.5mm" H 5650 1300 50  0001 C CNN
F 3 "~" H 5650 1300 50  0001 C CNN
	1    5450 1300
	0    1    1    0   
$EndComp
Wire Wire Line
	5450 1300 5300 1300
Wire Wire Line
	5300 1300 5300 1650
Wire Wire Line
	5300 1650 5200 1650
Connection ~ 5200 1650
$Comp
L Connector:TestPoint TP202
U 1 1 60917AEA
P 6650 1300
F 0 "TP202" V 6604 1488 50  0000 L CNN
F 1 "OUT" V 6695 1488 50  0000 L CNN
F 2 "TestPoint:TestPoint_Pad_D1.5mm" H 6850 1300 50  0001 C CNN
F 3 "~" H 6850 1300 50  0001 C CNN
	1    6650 1300
	0    1    1    0   
$EndComp
Wire Wire Line
	6650 1300 6550 1300
Connection ~ 6550 1300
Wire Wire Line
	6550 1300 6550 2000
$Comp
L Connector:TestPoint TP203
U 1 1 609770E9
P 3200 1800
F 0 "TP203" H 3258 1918 50  0000 L CNN
F 1 "+18V" H 3258 1827 50  0000 L CNN
F 2 "TestPoint:TestPoint_Pad_D1.5mm" H 3400 1800 50  0001 C CNN
F 3 "~" H 3400 1800 50  0001 C CNN
	1    3200 1800
	1    0    0    -1  
$EndComp
Wire Wire Line
	3200 1800 3200 1900
Connection ~ 3200 1900
$Comp
L Connector:TestPoint TP204
U 1 1 6098471D
P 6150 4700
F 0 "TP204" H 6092 4726 50  0000 R CNN
F 1 "-18V" H 6092 4817 50  0000 R CNN
F 2 "TestPoint:TestPoint_Pad_D1.5mm" H 6350 4700 50  0001 C CNN
F 3 "~" H 6350 4700 50  0001 C CNN
	1    6150 4700
	-1   0    0    1   
$EndComp
$Comp
L Connector:TestPoint TP205
U 1 1 6099CDA8
P 3650 1950
F 0 "TP205" V 3604 2138 50  0000 L CNN
F 1 "PRE+" V 3695 2138 50  0000 L CNN
F 2 "TestPoint:TestPoint_Pad_D1.5mm" H 3850 1950 50  0001 C CNN
F 3 "~" H 3850 1950 50  0001 C CNN
	1    3650 1950
	0    1    1    0   
$EndComp
Wire Wire Line
	3650 1950 3650 2350
$Comp
L Connector:TestPoint TP206
U 1 1 609AD4EC
P 3650 4250
F 0 "TP206" V 3604 4438 50  0000 L CNN
F 1 "PRE-" V 3695 4438 50  0000 L CNN
F 2 "TestPoint:TestPoint_Pad_D1.5mm" H 3850 4250 50  0001 C CNN
F 3 "~" H 3850 4250 50  0001 C CNN
	1    3650 4250
	0    1    1    0   
$EndComp
Wire Wire Line
	3650 4250 3650 3850
$Comp
L power:GND #PWR0101
U 1 1 6095FA8A
P 2050 3200
F 0 "#PWR0101" H 2050 2950 50  0001 C CNN
F 1 "GND" H 2055 3027 50  0000 C CNN
F 2 "" H 2050 3200 50  0001 C CNN
F 3 "" H 2050 3200 50  0001 C CNN
	1    2050 3200
	1    0    0    -1  
$EndComp
Wire Wire Line
	2150 3100 2050 3100
Wire Wire Line
	2050 3100 2050 3200
Wire Wire Line
	1950 2700 1950 3100
$Comp
L Device:C C206
U 1 1 6096D73B
P 1700 3100
F 0 "C206" V 1850 3050 50  0000 L CNN
F 1 "100p" V 1950 3050 50  0000 L CNN
F 2 "Capacitor_SMD:C_1206_3216Metric" H 1738 2950 50  0001 C CNN
F 3 "~" H 1700 3100 50  0001 C CNN
	1    1700 3100
	0    1    1    0   
$EndComp
Wire Wire Line
	1450 3100 1550 3100
Wire Wire Line
	1850 3100 1950 3100
Connection ~ 1950 3100
Wire Wire Line
	1950 3100 1950 3500
$Comp
L Device:R R210
U 1 1 6067D31D
P 2900 3100
F 0 "R210" H 2970 3146 50  0000 L CNN
F 1 "931" H 2970 3055 50  0000 L CNN
F 2 "Resistor_SMD:R_1206_3216Metric" V 2830 3100 50  0001 C CNN
F 3 "~" H 2900 3100 50  0001 C CNN
	1    2900 3100
	1    0    0    -1  
$EndComp
$Comp
L Device:R_POT_TRIM RV?
U 1 1 5FA9C5A0
P 3650 3100
AR Path="/5FA9C5A0" Ref="RV?"  Part="1" 
AR Path="/5FC0DE84/5FA9C5A0" Ref="RV?"  Part="1" 
AR Path="/5F9C2156/5FA9C5A0" Ref="RV201"  Part="1" 
F 0 "RV201" H 3580 3146 50  0000 R CNN
F 1 "2k" H 3580 3055 50  0000 R CNN
F 2 "Potentiometer_THT:Potentiometer_Bourns_3266W_Vertical" H 3650 3100 50  0001 C CNN
F 3 "~" H 3650 3100 50  0001 C CNN
	1    3650 3100
	1    0    0    -1  
$EndComp
Connection ~ 6150 4700
$EndSCHEMATC
