EESchema Schematic File Version 4
EELAYER 30 0
EELAYER END
$Descr A4 11693 8268
encoding utf-8
Sheet 3 3
Title "AMP-DR"
Date "2021-08-21"
Rev "3.1"
Comp "T5! DIY Audio"
Comment1 "HttPS://t-5.eu/hp/AMP-DR"
Comment2 ""
Comment3 ""
Comment4 ""
$EndDescr
NoConn ~ 9650 4300
Wire Wire Line
	7700 5800 7700 5650
Connection ~ 7700 5800
Wire Wire Line
	7300 5800 7300 5650
Wire Wire Line
	7700 5800 7300 5800
Wire Wire Line
	7600 4950 7600 5050
Connection ~ 7600 4950
Wire Wire Line
	7200 4950 7200 5050
Wire Wire Line
	7600 4950 7200 4950
Text GLabel 7550 5950 0    50   Input ~ 0
RY_OUT
$Comp
L Relay:G2RL-2-DC48 RL301
U 1 1 5FA55CDF
P 7700 5350
F 0 "RL301" H 8550 5400 50  0000 R CNN
F 1 "IM06DT" H 8600 5500 50  0000 R CNN
F 2 "SamacSys_Parts:314620398" H 8350 5300 50  0001 L CNN
F 3 "https://omronfs.omron.com/en_US/ecb/products/pdf/en-g2rl.pdf" H 7700 5350 50  0001 C CNN
	1    7700 5350
	-1   0    0    -1  
$EndComp
$Comp
L Connector:RJ45_Shielded J304
U 1 1 600951F9
P 9650 4800
F 0 "J304" H 9300 4800 50  0000 R CNN
F 1 "Controller" H 9300 4900 50  0000 R CNN
F 2 "SamacSys_Parts:NE8FAH" V 9650 4825 50  0001 C CNN
F 3 "~" V 9650 4825 50  0001 C CNN
	1    9650 4800
	-1   0    0    1   
$EndComp
Wire Wire Line
	5050 3050 4950 3050
Connection ~ 7450 3050
Connection ~ 7000 3050
Wire Wire Line
	7000 3050 7450 3050
Connection ~ 6550 3050
Wire Wire Line
	7000 3050 7000 2700
Wire Wire Line
	6550 3050 7000 3050
Connection ~ 5750 2150
Connection ~ 7000 2150
Wire Wire Line
	7000 2150 5750 2150
Connection ~ 7450 2150
Wire Wire Line
	7000 2150 7000 2400
Wire Wire Line
	7450 2150 7000 2150
Connection ~ 7900 3050
Connection ~ 7900 2150
Wire Wire Line
	7450 3050 7900 3050
Wire Wire Line
	7900 2150 7450 2150
Wire Wire Line
	7450 2700 7450 3050
Wire Wire Line
	7450 2400 7450 2150
$Comp
L Device:CP C?
U 1 1 6003392C
P 7450 2550
AR Path="/6003392C" Ref="C?"  Part="1" 
AR Path="/5FC0DE84/6003392C" Ref="C309"  Part="1" 
F 0 "C309" H 7568 2596 50  0000 L CNN
F 1 "220u" H 7568 2505 50  0000 L CNN
F 2 "SamacSys_Parts:CAPAE1030X1050N" H 7488 2400 50  0001 C CNN
F 3 "~" H 7450 2550 50  0001 C CNN
	1    7450 2550
	1    0    0    -1  
$EndComp
Connection ~ 8350 3050
Connection ~ 8350 2150
Wire Wire Line
	7900 3050 8350 3050
Wire Wire Line
	8350 2150 7900 2150
Wire Wire Line
	7900 2700 7900 3050
Wire Wire Line
	7900 2400 7900 2150
$Comp
L Device:CP C?
U 1 1 6003391C
P 7900 2550
AR Path="/6003391C" Ref="C?"  Part="1" 
AR Path="/5FC0DE84/6003391C" Ref="C310"  Part="1" 
F 0 "C310" H 8018 2596 50  0000 L CNN
F 1 "220u" H 8018 2505 50  0000 L CNN
F 2 "SamacSys_Parts:CAPAE1030X1050N" H 7938 2400 50  0001 C CNN
F 3 "~" H 7900 2550 50  0001 C CNN
	1    7900 2550
	1    0    0    -1  
$EndComp
Connection ~ 8800 3050
Wire Wire Line
	8350 3050 8800 3050
Connection ~ 8800 2150
Wire Wire Line
	8800 2150 8350 2150
Wire Wire Line
	8350 2700 8350 3050
Wire Wire Line
	8350 2400 8350 2150
$Comp
L Device:CP C?
U 1 1 6003390C
P 8350 2550
AR Path="/6003390C" Ref="C?"  Part="1" 
AR Path="/5FC0DE84/6003390C" Ref="C311"  Part="1" 
F 0 "C311" H 8468 2596 50  0000 L CNN
F 1 "220u" H 8468 2505 50  0000 L CNN
F 2 "SamacSys_Parts:CAPAE1030X1050N" H 8388 2400 50  0001 C CNN
F 3 "~" H 8350 2550 50  0001 C CNN
	1    8350 2550
	1    0    0    -1  
$EndComp
Connection ~ 5550 2150
Wire Wire Line
	5750 2150 5750 2200
Wire Wire Line
	5550 2150 5750 2150
Connection ~ 5750 2550
Wire Wire Line
	5750 2500 5750 2550
Wire Wire Line
	6550 2550 6550 2650
Wire Wire Line
	5750 2600 5750 2550
Wire Wire Line
	6550 3050 6550 2950
$Comp
L Device:C C314
U 1 1 600338F0
P 6550 2800
F 0 "C314" H 6665 2846 50  0000 L CNN
F 1 "47n" H 6665 2755 50  0000 L CNN
F 2 "Capacitor_SMD:C_1206_3216Metric" H 6588 2650 50  0001 C CNN
F 3 "~" H 6550 2800 50  0001 C CNN
	1    6550 2800
	1    0    0    -1  
$EndComp
Connection ~ 5350 2150
Wire Wire Line
	5550 2150 5350 2150
Wire Wire Line
	5550 2600 5550 2150
Wire Wire Line
	5350 2500 5350 2600
Wire Wire Line
	4950 2150 5350 2150
Wire Wire Line
	5350 2150 5350 2200
$Comp
L Device:R R304
U 1 1 600338DE
P 5350 2350
F 0 "R304" H 5100 2400 50  0000 L CNN
F 1 "4k3" H 5150 2300 50  0000 L CNN
F 2 "Resistor_SMD:R_1206_3216Metric" V 5280 2350 50  0001 C CNN
F 3 "~" H 5350 2350 50  0001 C CNN
	1    5350 2350
	1    0    0    -1  
$EndComp
$Comp
L SamacSys_Parts:LT1185CT#PBF IC302
U 1 1 600338D4
P 5050 3100
F 0 "IC302" H 5550 3223 50  0000 C CNN
F 1 "LT1185CT#PBF" H 5550 3314 50  0000 C CNN
F 2 "Package_TO_SOT_SMD:TO-263-5_TabPin3" H 6000 3200 50  0001 L CNN
F 3 "http://cds.linear.com/docs/en/datasheet/1185ff.pdf" H 6000 3100 50  0001 L CNN
F 4 "LT1185CT#PBF, Low Dropout Voltage Regulator, Adjustable 3A, 2.5  25 V, 5-Pin TO-220" H 6000 3000 50  0001 L CNN "Description"
F 5 "4.572" H 6000 2900 50  0001 L CNN "Height"
F 6 "584-LT1185CT#PBF" H 6000 2800 50  0001 L CNN "Mouser Part Number"
F 7 "https://www.mouser.co.uk/ProductDetail/Analog-Devices-Linear-Technology/LT1185CTPBF?qs=ytflclh7QUVmbLKcWcZRXg%3D%3D" H 6000 2700 50  0001 L CNN "Mouser Price/Stock"
F 8 "Linear Technology" H 6000 2600 50  0001 L CNN "Manufacturer_Name"
F 9 "LT1185CT#PBF" H 6000 2500 50  0001 L CNN "Manufacturer_Part_Number"
	1    5050 3100
	1    0    0    1   
$EndComp
$Comp
L Device:CP C?
U 1 1 600338C4
P 7000 2550
AR Path="/600338C4" Ref="C?"  Part="1" 
AR Path="/5FC0DE84/600338C4" Ref="C308"  Part="1" 
F 0 "C308" H 7118 2596 50  0000 L CNN
F 1 "10u" H 7118 2505 50  0000 L CNN
F 2 "Capacitor_SMD:CP_Elec_6.3x5.3" H 7038 2400 50  0001 C CNN
F 3 "~" H 7000 2550 50  0001 C CNN
	1    7000 2550
	1    0    0    -1  
$EndComp
Wire Wire Line
	8800 2700 8800 3050
Wire Wire Line
	8800 2400 8800 2150
$Comp
L Device:CP C?
U 1 1 600338AD
P 8800 2550
AR Path="/600338AD" Ref="C?"  Part="1" 
AR Path="/5FC0DE84/600338AD" Ref="C312"  Part="1" 
F 0 "C312" H 8918 2596 50  0000 L CNN
F 1 "220u" H 8918 2505 50  0000 L CNN
F 2 "SamacSys_Parts:CAPAE1030X1050N" H 8838 2400 50  0001 C CNN
F 3 "~" H 8800 2550 50  0001 C CNN
	1    8800 2550
	1    0    0    -1  
$EndComp
Wire Wire Line
	8950 2150 8800 2150
$Comp
L Device:R R?
U 1 1 600335AC
P 5750 2350
AR Path="/600335AC" Ref="R?"  Part="1" 
AR Path="/5FC0DE84/600335AC" Ref="R305"  Part="1" 
F 0 "R305" H 5820 2396 50  0000 L CNN
F 1 "2k37" H 5820 2305 50  0000 L CNN
F 2 "Resistor_SMD:R_1206_3216Metric" V 5680 2350 50  0001 C CNN
F 3 "~" H 5750 2350 50  0001 C CNN
	1    5750 2350
	1    0    0    -1  
$EndComp
Connection ~ 7450 1650
Connection ~ 7000 1650
Wire Wire Line
	7000 1650 7450 1650
Connection ~ 6550 1650
Wire Wire Line
	7000 1650 7000 1300
Wire Wire Line
	6550 1650 7000 1650
Connection ~ 5750 750 
Connection ~ 7000 750 
Wire Wire Line
	7000 750  5750 750 
Connection ~ 7450 750 
Wire Wire Line
	7000 750  7000 1000
Wire Wire Line
	7450 750  7000 750 
Connection ~ 7900 1650
Connection ~ 7900 750 
Wire Wire Line
	7450 1650 7900 1650
Wire Wire Line
	7900 750  7450 750 
Wire Wire Line
	7450 1300 7450 1650
Wire Wire Line
	7450 1000 7450 750 
$Comp
L Device:CP C?
U 1 1 5FF9E2C6
P 7450 1150
AR Path="/5FF9E2C6" Ref="C?"  Part="1" 
AR Path="/5FC0DE84/5FF9E2C6" Ref="C302"  Part="1" 
F 0 "C302" H 7568 1196 50  0000 L CNN
F 1 "220u" H 7568 1105 50  0000 L CNN
F 2 "SamacSys_Parts:CAPAE1030X1050N" H 7488 1000 50  0001 C CNN
F 3 "~" H 7450 1150 50  0001 C CNN
	1    7450 1150
	1    0    0    -1  
$EndComp
Connection ~ 8350 1650
Connection ~ 8350 750 
Wire Wire Line
	7900 1650 8350 1650
Wire Wire Line
	8350 750  7900 750 
Wire Wire Line
	7900 1300 7900 1650
Wire Wire Line
	7900 1000 7900 750 
$Comp
L Device:CP C?
U 1 1 5FF824CA
P 7900 1150
AR Path="/5FF824CA" Ref="C?"  Part="1" 
AR Path="/5FC0DE84/5FF824CA" Ref="C303"  Part="1" 
F 0 "C303" H 8018 1196 50  0000 L CNN
F 1 "220u" H 8018 1105 50  0000 L CNN
F 2 "SamacSys_Parts:CAPAE1030X1050N" H 7938 1000 50  0001 C CNN
F 3 "~" H 7900 1150 50  0001 C CNN
	1    7900 1150
	1    0    0    -1  
$EndComp
Connection ~ 8800 1650
Wire Wire Line
	8350 1650 8800 1650
Connection ~ 8800 750 
Wire Wire Line
	8800 750  8350 750 
Wire Wire Line
	8350 1300 8350 1650
Wire Wire Line
	8350 1000 8350 750 
$Comp
L Device:CP C?
U 1 1 5FF41149
P 8350 1150
AR Path="/5FF41149" Ref="C?"  Part="1" 
AR Path="/5FC0DE84/5FF41149" Ref="C304"  Part="1" 
F 0 "C304" H 8468 1196 50  0000 L CNN
F 1 "220u" H 8468 1105 50  0000 L CNN
F 2 "SamacSys_Parts:CAPAE1030X1050N" H 8388 1000 50  0001 C CNN
F 3 "~" H 8350 1150 50  0001 C CNN
	1    8350 1150
	1    0    0    -1  
$EndComp
Connection ~ 5550 750 
Wire Wire Line
	5750 750  5750 800 
Wire Wire Line
	5550 750  5750 750 
Connection ~ 5750 1150
Wire Wire Line
	5750 1100 5750 1150
Connection ~ 6100 1150
Wire Wire Line
	6550 1150 6550 1250
Wire Wire Line
	6100 1150 6550 1150
Wire Wire Line
	6100 1150 6100 1250
Wire Wire Line
	5750 1150 6100 1150
Wire Wire Line
	5750 1200 5750 1150
Connection ~ 6100 1650
Wire Wire Line
	6550 1650 6550 1550
$Comp
L Device:C C307
U 1 1 5FE81FBC
P 6550 1400
F 0 "C307" H 6665 1446 50  0000 L CNN
F 1 "47n" H 6665 1355 50  0000 L CNN
F 2 "Capacitor_SMD:C_1206_3216Metric" H 6588 1250 50  0001 C CNN
F 3 "~" H 6550 1400 50  0001 C CNN
	1    6550 1400
	1    0    0    -1  
$EndComp
Wire Wire Line
	6100 1650 6100 1550
Wire Wire Line
	6050 1650 6100 1650
Connection ~ 5350 750 
Wire Wire Line
	5550 750  5350 750 
Wire Wire Line
	5550 1200 5550 750 
Wire Wire Line
	5350 1100 5350 1200
Wire Wire Line
	4950 750  5350 750 
Wire Wire Line
	5350 750  5350 800 
$Comp
L Device:R R301
U 1 1 5FE2C439
P 5350 950
F 0 "R301" H 5100 1000 50  0000 L CNN
F 1 "4k3" H 5150 900 50  0000 L CNN
F 2 "Resistor_SMD:R_1206_3216Metric" V 5280 950 50  0001 C CNN
F 3 "~" H 5350 950 50  0001 C CNN
	1    5350 950 
	1    0    0    -1  
$EndComp
Wire Wire Line
	5050 1650 4950 1650
$Comp
L SamacSys_Parts:LT1185CT#PBF IC301
U 1 1 5FDCAB52
P 5050 1700
F 0 "IC301" H 5550 1823 50  0000 C CNN
F 1 "LT1185CT#PBF" H 5550 1914 50  0000 C CNN
F 2 "Package_TO_SOT_SMD:TO-263-5_TabPin3" H 6000 1800 50  0001 L CNN
F 3 "http://cds.linear.com/docs/en/datasheet/1185ff.pdf" H 6000 1700 50  0001 L CNN
F 4 "LT1185CT#PBF, Low Dropout Voltage Regulator, Adjustable 3A, 2.5  25 V, 5-Pin TO-220" H 6000 1600 50  0001 L CNN "Description"
F 5 "4.572" H 6000 1500 50  0001 L CNN "Height"
F 6 "584-LT1185CT#PBF" H 6000 1400 50  0001 L CNN "Mouser Part Number"
F 7 "https://www.mouser.co.uk/ProductDetail/Analog-Devices-Linear-Technology/LT1185CTPBF?qs=ytflclh7QUVmbLKcWcZRXg%3D%3D" H 6000 1300 50  0001 L CNN "Mouser Price/Stock"
F 8 "Linear Technology" H 6000 1200 50  0001 L CNN "Manufacturer_Name"
F 9 "LT1185CT#PBF" H 6000 1100 50  0001 L CNN "Manufacturer_Part_Number"
	1    5050 1700
	1    0    0    1   
$EndComp
$Comp
L Device:CP C?
U 1 1 5FC30662
P 4950 1200
AR Path="/5FC30662" Ref="C?"  Part="1" 
AR Path="/5FC0DE84/5FC30662" Ref="C306"  Part="1" 
F 0 "C306" H 5068 1246 50  0000 L CNN
F 1 "10u" H 5068 1155 50  0000 L CNN
F 2 "Capacitor_SMD:CP_Elec_6.3x5.3" H 4988 1050 50  0001 C CNN
F 3 "~" H 4950 1200 50  0001 C CNN
	1    4950 1200
	1    0    0    -1  
$EndComp
Wire Wire Line
	4950 1350 4950 1650
Wire Wire Line
	1800 7050 1800 7100
Connection ~ 1800 7050
Wire Wire Line
	2250 7050 1800 7050
Wire Wire Line
	2250 7050 2250 7100
Connection ~ 2250 7050
Wire Wire Line
	2250 7050 2700 7050
Wire Wire Line
	2700 7050 2700 7100
Connection ~ 2700 7050
Wire Wire Line
	3150 7050 2700 7050
Wire Wire Line
	3150 7050 3150 7100
Connection ~ 3150 7050
Wire Wire Line
	3600 7050 3150 7050
Wire Wire Line
	3600 7050 3600 7100
Connection ~ 3600 7050
Wire Wire Line
	4050 7050 3600 7050
Wire Wire Line
	4050 7050 4050 7100
Connection ~ 4050 7050
Wire Wire Line
	4500 7050 4050 7050
Wire Wire Line
	4500 7050 4500 7100
Connection ~ 4500 7050
Wire Wire Line
	4950 7050 4500 7050
Wire Wire Line
	4950 7050 4950 7100
Connection ~ 4950 7050
Wire Wire Line
	5400 7050 4950 7050
Wire Wire Line
	5400 7050 5400 7100
Connection ~ 5400 7050
Wire Wire Line
	5850 7050 5400 7050
Wire Wire Line
	5850 7050 5850 7100
Connection ~ 5850 7050
Wire Wire Line
	6300 7050 5850 7050
Wire Wire Line
	6300 7200 6300 7050
$Comp
L power:GND #PWR0304
U 1 1 5FBBBC3F
P 6300 7200
F 0 "#PWR0304" H 6300 6950 50  0001 C CNN
F 1 "GND" H 6305 7027 50  0000 C CNN
F 2 "" H 6300 7200 50  0001 C CNN
F 3 "" H 6300 7200 50  0001 C CNN
	1    6300 7200
	1    0    0    -1  
$EndComp
Wire Wire Line
	3550 6100 3100 6100
Connection ~ 3550 6100
Wire Wire Line
	3550 6000 3550 6100
Wire Wire Line
	3550 5600 3100 5600
Connection ~ 3550 5600
Wire Wire Line
	3550 5700 3550 5600
$Comp
L Device:C C?
U 1 1 603F02D0
P 3550 5850
AR Path="/603F02D0" Ref="C?"  Part="1" 
AR Path="/5FC0DE84/603F02D0" Ref="C316"  Part="1" 
F 0 "C316" H 3665 5896 50  0000 L CNN
F 1 "10n" H 3665 5805 50  0000 L CNN
F 2 "Capacitor_SMD:C_1206_3216Metric" H 3588 5700 50  0001 C CNN
F 3 "~" H 3550 5850 50  0001 C CNN
	1    3550 5850
	1    0    0    -1  
$EndComp
Connection ~ 3100 6100
Wire Wire Line
	3100 5600 3100 5700
Connection ~ 3100 5600
Connection ~ 2650 4500
Wire Wire Line
	3100 5500 3100 5600
Text GLabel 6450 6650 2    50   Input ~ 0
+18V
Wire Wire Line
	5850 6650 5850 6700
Wire Wire Line
	5850 6650 5400 6650
Wire Wire Line
	5400 6650 5400 6700
Connection ~ 5850 6650
Wire Wire Line
	5400 6650 4950 6650
Wire Wire Line
	4950 6650 4950 6700
Wire Wire Line
	4950 6650 4500 6650
Wire Wire Line
	4500 6650 4500 6700
Wire Wire Line
	4500 6650 4050 6650
Wire Wire Line
	4050 6650 4050 6700
Wire Wire Line
	4050 6650 3600 6650
Wire Wire Line
	3600 6650 3600 6700
Connection ~ 4050 6650
Connection ~ 4500 6650
Connection ~ 4950 6650
Connection ~ 5400 6650
Wire Wire Line
	3600 6650 3150 6650
Connection ~ 3600 6650
$Comp
L SamacSys_Parts:TPS3702AX33DDCR IC304
U 1 1 5FCEC7CC
P 4250 5400
F 0 "IC304" H 4700 5665 50  0000 C CNN
F 1 "TPS3702AX33DDCR" H 4700 5574 50  0000 C CNN
F 2 "Package_TO_SOT_SMD:SOT-23-6" H 5200 5500 50  0001 L CNN
F 3 "http://www.ti.com/lit/gpn/tps3702" H 5200 5400 50  0001 L CNN
F 4 "High accuracy window voltage detector for overvoltage & undervoltage monitoring" H 5200 5300 50  0001 L CNN "Description"
F 5 "1.1" H 5200 5200 50  0001 L CNN "Height"
F 6 "595-TPS3702AX33DDCR" H 5200 5100 50  0001 L CNN "Mouser Part Number"
F 7 "https://www.mouser.com/Search/Refine.aspx?Keyword=595-TPS3702AX33DDCR" H 5200 5000 50  0001 L CNN "Mouser Price/Stock"
F 8 "Texas Instruments" H 5200 4900 50  0001 L CNN "Manufacturer_Name"
F 9 "TPS3702AX33DDCR" H 5200 4800 50  0001 L CNN "Manufacturer_Part_Number"
	1    4250 5400
	1    0    0    -1  
$EndComp
Wire Wire Line
	2650 4500 4150 4500
Wire Wire Line
	5450 4500 5450 5500
Wire Wire Line
	5450 5500 5150 5500
Wire Wire Line
	4250 5500 4150 5500
Wire Wire Line
	4150 5500 4150 6100
Wire Wire Line
	4250 5600 3550 5600
Wire Wire Line
	4150 6100 3550 6100
$Comp
L Device:R R307
U 1 1 5FE16E47
P 4150 4750
F 0 "R307" H 4220 4796 50  0000 L CNN
F 1 "22k" H 4220 4705 50  0000 L CNN
F 2 "Resistor_SMD:R_1206_3216Metric" V 4080 4750 50  0001 C CNN
F 3 "~" H 4150 4750 50  0001 C CNN
	1    4150 4750
	1    0    0    -1  
$EndComp
Wire Wire Line
	4150 4600 4150 4500
Connection ~ 4150 4500
Wire Wire Line
	4150 4500 5450 4500
Wire Wire Line
	4150 4900 4150 5050
Wire Wire Line
	4150 5400 4250 5400
Wire Wire Line
	5450 5600 5450 5500
Wire Wire Line
	5150 5600 5450 5600
Connection ~ 5450 5500
Wire Wire Line
	4150 5050 5250 5050
Wire Wire Line
	5250 5050 5250 5400
Wire Wire Line
	5250 5400 5150 5400
Connection ~ 4150 5050
Wire Wire Line
	4150 5050 4150 5400
$Comp
L Transistor_BJT:BC848 Q302
U 1 1 5FEA5FF9
P 5950 5400
F 0 "Q302" H 6141 5446 50  0000 L CNN
F 1 "BC848" H 6141 5355 50  0000 L CNN
F 2 "Package_TO_SOT_SMD:SOT-23" H 6150 5325 50  0001 L CIN
F 3 "http://www.infineon.com/dgdl/Infineon-BC847SERIES_BC848SERIES_BC849SERIES_BC850SERIES-DS-v01_01-en.pdf?fileId=db3a304314dca389011541d4630a1657" H 5950 5400 50  0001 L CNN
	1    5950 5400
	1    0    0    -1  
$EndComp
Wire Wire Line
	5250 5400 5750 5400
Connection ~ 5250 5400
Wire Wire Line
	4150 6100 5450 6100
Wire Wire Line
	6050 6100 6050 5600
Connection ~ 4150 6100
Connection ~ 5450 4500
$Comp
L Device:R R308
U 1 1 5FF14AB9
P 6050 4850
F 0 "R308" H 6120 4896 50  0000 L CNN
F 1 "1k" H 6120 4805 50  0000 L CNN
F 2 "Resistor_SMD:R_1206_3216Metric" V 5980 4850 50  0001 C CNN
F 3 "~" H 6050 4850 50  0001 C CNN
	1    6050 4850
	1    0    0    -1  
$EndComp
Wire Wire Line
	6200 4600 6050 4600
Wire Wire Line
	6050 4600 6050 4700
Wire Wire Line
	6050 5200 6050 5100
$Comp
L SamacSys_Parts:VOM617A-3T Q301
U 1 1 5FF57AAC
P 6200 4500
F 0 "Q301" H 6575 4765 50  0000 C CNN
F 1 "VOM617A-3T" H 6575 4674 50  0000 C CNN
F 2 "SamacSys_Parts:SOP254P675X240-4N" H 7050 4600 50  0001 L CNN
F 3 "https://componentsearchengine.com/Datasheets/1/VOM617A-3T.pdf" H 7050 4500 50  0001 L CNN
F 4 "Vishay, VOM617A-3T DC Input Phototransistor Output Optocoupler, Surface Mount, 4-Pin SOP" H 7050 4400 50  0001 L CNN "Description"
F 5 "2.4" H 7050 4300 50  0001 L CNN "Height"
F 6 "78-VOM617A-3T" H 7050 4200 50  0001 L CNN "Mouser Part Number"
F 7 "https://www.mouser.com/Search/Refine.aspx?Keyword=78-VOM617A-3T" H 7050 4100 50  0001 L CNN "Mouser Price/Stock"
F 8 "Vishay" H 7050 4000 50  0001 L CNN "Manufacturer_Name"
F 9 "VOM617A-3T" H 7050 3900 50  0001 L CNN "Manufacturer_Part_Number"
	1    6200 4500
	1    0    0    -1  
$EndComp
Wire Wire Line
	9250 4700 9100 4700
Wire Wire Line
	9100 4700 9100 4900
Wire Wire Line
	9100 4900 9250 4900
Wire Wire Line
	9100 4900 9100 5100
Wire Wire Line
	9100 5100 9250 5100
Connection ~ 9100 4900
Wire Wire Line
	9250 4800 9000 4800
Wire Wire Line
	9000 4800 9000 5000
Wire Wire Line
	9000 5000 9250 5000
Wire Wire Line
	9250 5200 9000 5200
Wire Wire Line
	9000 5200 9000 5000
Connection ~ 9000 5000
Wire Wire Line
	6950 4500 9250 4500
Wire Wire Line
	6950 4600 9250 4600
$Comp
L AMP-DR-rescue:SS16HE-SamacSys_Parts D?
U 1 1 6002EFB8
P 8500 5050
AR Path="/6002EFB8" Ref="D?"  Part="1" 
AR Path="/5FC0DE84/6002EFB8" Ref="D302"  Part="1" 
F 0 "D302" V 8754 5178 50  0000 L CNN
F 1 "SS16HE" V 8845 5178 50  0000 L CNN
F 2 "SamacSys_Parts:SS16HE" H 8950 5050 50  0001 L CNN
F 3 "https://www.onsemi.com/pub/Collateral/SS13HE-D.PDF" H 8950 4950 50  0001 L CNN
F 4 "ON Semi 60V 1A, Diode, 2-Pin SOD-323HE SS16HE" H 8950 4850 50  0001 L CNN "Description"
F 5 "0.75" H 8950 4750 50  0001 L CNN "Height"
F 6 "ON Semiconductor" H 8950 4650 50  0001 L CNN "Manufacturer_Name"
F 7 "SS16HE" H 8950 4550 50  0001 L CNN "Manufacturer_Part_Number"
F 8 "512-SS16HE" H 8950 4450 50  0001 L CNN "Mouser Part Number"
F 9 "https://www.mouser.com/Search/Refine.aspx?Keyword=512-SS16HE" H 8950 4350 50  0001 L CNN "Mouser Price/Stock"
F 10 "1867888P" H 8950 4250 50  0001 L CNN "RS Part Number"
F 11 "http://uk.rs-online.com/web/p/products/1867888P" H 8950 4150 50  0001 L CNN "RS Price/Stock"
	1    8500 5050
	0    1    1    0   
$EndComp
Wire Wire Line
	8100 5050 8100 4900
Wire Wire Line
	8100 4900 8500 4900
Wire Wire Line
	8500 4900 8500 5050
Wire Wire Line
	8500 5650 8500 5750
Wire Wire Line
	8500 5750 8100 5750
Wire Wire Line
	8100 5750 8100 5650
Wire Wire Line
	8500 5750 9000 5750
Connection ~ 8500 5750
Connection ~ 9000 5200
Text GLabel 7450 4800 0    50   Input ~ 0
RY_IN
Wire Wire Line
	7600 4800 7600 4950
Wire Wire Line
	5450 3500 5450 4050
Connection ~ 3150 6650
Wire Wire Line
	3100 5050 3100 5200
Text GLabel 3100 5050 1    50   Input ~ 0
+18V
$Comp
L Device:R R309
U 1 1 5FDDBD8E
P 3100 5350
F 0 "R309" H 3170 5396 50  0000 L CNN
F 1 "9k88" H 3170 5305 50  0000 L CNN
F 2 "Resistor_SMD:R_0805_2012Metric" V 3030 5350 50  0001 C CNN
F 3 "~" H 3100 5350 50  0001 C CNN
	1    3100 5350
	1    0    0    -1  
$EndComp
Connection ~ 2650 6100
Wire Wire Line
	3100 6100 3100 6000
Wire Wire Line
	2650 6100 3100 6100
$Comp
L Device:R R310
U 1 1 5FD44975
P 3100 5850
F 0 "R310" H 3170 5896 50  0000 L CNN
F 1 "1k" H 3170 5805 50  0000 L CNN
F 2 "Resistor_SMD:R_1206_3216Metric" V 3030 5850 50  0001 C CNN
F 3 "~" H 3100 5850 50  0001 C CNN
	1    3100 5850
	1    0    0    -1  
$EndComp
Connection ~ 2050 6100
Wire Wire Line
	2650 6100 2050 6100
Wire Wire Line
	2650 5450 2650 6100
Wire Wire Line
	2650 4500 2650 5150
Wire Wire Line
	2500 4500 2650 4500
$Comp
L Device:CP C?
U 1 1 5FD07576
P 2650 5300
AR Path="/5FD07576" Ref="C?"  Part="1" 
AR Path="/5FC0DE84/5FD07576" Ref="C315"  Part="1" 
F 0 "C315" H 2768 5346 50  0000 L CNN
F 1 "10u" H 2768 5255 50  0000 L CNN
F 2 "Capacitor_SMD:CP_Elec_6.3x5.3" H 2688 5150 50  0001 C CNN
F 3 "~" H 2650 5300 50  0001 C CNN
	1    2650 5300
	1    0    0    -1  
$EndComp
Wire Wire Line
	2050 6100 2050 4900
Wire Wire Line
	1500 6100 2050 6100
Text GLabel 1500 6100 0    50   Input ~ 0
-18V
Wire Wire Line
	1550 4500 1650 4500
$Comp
L power:GND #PWR0303
U 1 1 5FCEF1D2
P 1550 4500
F 0 "#PWR0303" H 1550 4250 50  0001 C CNN
F 1 "GND" V 1555 4372 50  0000 R CNN
F 2 "" H 1550 4500 50  0001 C CNN
F 3 "" H 1550 4500 50  0001 C CNN
	1    1550 4500
	0    1    1    0   
$EndComp
$Comp
L SamacSys_Parts:NCP1117DT12G IC303
U 1 1 5FCED485
P 2500 4500
F 0 "IC303" H 2925 4765 50  0000 C CNN
F 1 "NCP1117DT12G" H 2925 4674 50  0000 C CNN
F 2 "Package_TO_SOT_SMD:TO-252-3_TabPin2" H 3750 4600 50  0001 L CNN
F 3 "https://www.onsemi.com/pub/Collateral/NCP1117-D.PDF" H 3750 4500 50  0001 L CNN
F 4 "LDO Voltage Regulators 12V 1A Positive" H 3750 4400 50  0001 L CNN "Description"
F 5 "863-NCP1117DT12G" H 3750 4200 50  0001 L CNN "Mouser Part Number"
F 6 "https://www.mouser.co.uk/ProductDetail/ON-Semiconductor/NCP1117DT12G?qs=Gev%252BmEvV0iYoIRNZQdQPUQ%3D%3D" H 3750 4100 50  0001 L CNN "Mouser Price/Stock"
F 7 "ON Semiconductor" H 3750 4000 50  0001 L CNN "Manufacturer_Name"
F 8 "NCP1117DT12G" H 3750 3900 50  0001 L CNN "Manufacturer_Part_Number"
	1    2500 4500
	-1   0    0    -1  
$EndComp
Connection ~ 2250 7450
Connection ~ 2250 6650
Wire Wire Line
	1800 6650 1800 6700
Wire Wire Line
	2250 6650 1800 6650
Wire Wire Line
	1800 7000 1800 7050
Wire Wire Line
	1800 7450 1800 7400
Wire Wire Line
	2250 7450 1800 7450
Connection ~ 2700 7450
Connection ~ 2700 6650
Wire Wire Line
	2250 6650 2250 6700
Wire Wire Line
	2700 6650 2250 6650
Wire Wire Line
	2250 7000 2250 7050
Wire Wire Line
	2250 7450 2250 7400
Wire Wire Line
	2700 7450 2250 7450
$Comp
L Device:CP C?
U 1 1 5FC306A9
P 7000 1150
AR Path="/5FC306A9" Ref="C?"  Part="1" 
AR Path="/5FC0DE84/5FC306A9" Ref="C301"  Part="1" 
F 0 "C301" H 7118 1196 50  0000 L CNN
F 1 "10u" H 7118 1105 50  0000 L CNN
F 2 "Capacitor_SMD:CP_Elec_6.3x5.3" H 7038 1000 50  0001 C CNN
F 3 "~" H 7000 1150 50  0001 C CNN
	1    7000 1150
	1    0    0    -1  
$EndComp
Connection ~ 3600 7450
Connection ~ 3150 7450
Wire Wire Line
	2700 6650 2700 6700
Wire Wire Line
	3150 6650 2700 6650
Wire Wire Line
	2700 7000 2700 7050
Wire Wire Line
	2700 7450 2700 7400
Wire Wire Line
	3150 7450 2700 7450
Wire Wire Line
	3150 6650 3150 6700
Wire Wire Line
	3150 7000 3150 7050
Wire Wire Line
	3150 7450 3150 7400
Wire Wire Line
	3600 7450 3150 7450
Text GLabel 9650 3050 2    50   Input ~ 0
-18V
Wire Wire Line
	4950 2750 4950 3050
$Comp
L power:GND #PWR?
U 1 1 5FC3062E
P 8950 2150
AR Path="/5FC3062E" Ref="#PWR?"  Part="1" 
AR Path="/5FC0DE84/5FC3062E" Ref="#PWR0302"  Part="1" 
F 0 "#PWR0302" H 8950 1900 50  0001 C CNN
F 1 "GND" V 8955 2022 50  0000 R CNN
F 2 "" H 8950 2150 50  0001 C CNN
F 3 "" H 8950 2150 50  0001 C CNN
	1    8950 2150
	0    -1   -1   0   
$EndComp
Wire Wire Line
	4950 2150 4950 2450
$Comp
L Device:CP C?
U 1 1 5FC30623
P 4950 2600
AR Path="/5FC30623" Ref="C?"  Part="1" 
AR Path="/5FC0DE84/5FC30623" Ref="C313"  Part="1" 
F 0 "C313" H 5068 2646 50  0000 L CNN
F 1 "10u" H 5068 2555 50  0000 L CNN
F 2 "Capacitor_SMD:CP_Elec_6.3x5.3" H 4988 2450 50  0001 C CNN
F 3 "~" H 4950 2600 50  0001 C CNN
	1    4950 2600
	1    0    0    -1  
$EndComp
Wire Wire Line
	8800 1650 8950 1650
Wire Wire Line
	8800 1300 8800 1650
Wire Wire Line
	8800 1000 8800 750 
$Comp
L Device:CP C?
U 1 1 5FC3060C
P 8800 1150
AR Path="/5FC3060C" Ref="C?"  Part="1" 
AR Path="/5FC0DE84/5FC3060C" Ref="C305"  Part="1" 
F 0 "C305" H 8918 1196 50  0000 L CNN
F 1 "220u" H 8918 1105 50  0000 L CNN
F 2 "SamacSys_Parts:CAPAE1030X1050N" H 8838 1000 50  0001 C CNN
F 3 "~" H 8800 1150 50  0001 C CNN
	1    8800 1150
	1    0    0    -1  
$EndComp
Text GLabel 9650 750  2    50   Input ~ 0
+18V
$Comp
L Device:R R?
U 1 1 5FC30601
P 5750 950
AR Path="/5FC30601" Ref="R?"  Part="1" 
AR Path="/5FC0DE84/5FC30601" Ref="R302"  Part="1" 
F 0 "R302" H 5820 996 50  0000 L CNN
F 1 "2k37" H 5820 905 50  0000 L CNN
F 2 "Resistor_SMD:R_1206_3216Metric" V 5680 950 50  0001 C CNN
F 3 "~" H 5750 950 50  0001 C CNN
	1    5750 950 
	1    0    0    -1  
$EndComp
$Comp
L power:GND #PWR?
U 1 1 5FC305F8
P 8950 1650
AR Path="/5FC305F8" Ref="#PWR?"  Part="1" 
AR Path="/5FC0DE84/5FC305F8" Ref="#PWR0301"  Part="1" 
F 0 "#PWR0301" H 8950 1400 50  0001 C CNN
F 1 "GND" V 8955 1522 50  0000 R CNN
F 2 "" H 8950 1650 50  0001 C CNN
F 3 "" H 8950 1650 50  0001 C CNN
	1    8950 1650
	0    -1   -1   0   
$EndComp
Wire Wire Line
	4950 750  4950 1050
Connection ~ 5400 7450
Connection ~ 4950 7450
Connection ~ 4500 7450
Connection ~ 4050 7450
Wire Wire Line
	3600 7000 3600 7050
Wire Wire Line
	3600 7450 3600 7400
Wire Wire Line
	4050 7450 3600 7450
Wire Wire Line
	4050 7000 4050 7050
Wire Wire Line
	4050 7450 4050 7400
Wire Wire Line
	4500 7450 4050 7450
Wire Wire Line
	4500 7000 4500 7050
Wire Wire Line
	4500 7450 4500 7400
Wire Wire Line
	4950 7450 4500 7450
Wire Wire Line
	4950 7000 4950 7050
Wire Wire Line
	4950 7450 4950 7400
Wire Wire Line
	5400 7450 4950 7450
Connection ~ 5850 7450
Wire Wire Line
	5400 7000 5400 7050
Wire Wire Line
	5400 7450 5400 7400
Wire Wire Line
	5850 7450 5400 7450
Wire Wire Line
	5850 7000 5850 7050
Wire Wire Line
	5850 7450 5850 7400
Text GLabel 6450 7450 2    50   Input ~ 0
-18V
$Comp
L Device:C C?
U 1 1 5FB13FD1
P 5450 5850
AR Path="/5FB13FD1" Ref="C?"  Part="1" 
AR Path="/5FC0DE84/5FB13FD1" Ref="C317"  Part="1" 
F 0 "C317" H 5565 5896 50  0000 L CNN
F 1 "100n" H 5565 5805 50  0000 L CNN
F 2 "Capacitor_SMD:C_1206_3216Metric" H 5488 5700 50  0001 C CNN
F 3 "~" H 5450 5850 50  0001 C CNN
	1    5450 5850
	1    0    0    -1  
$EndComp
Wire Wire Line
	5450 5700 5450 5600
Connection ~ 5450 5600
Wire Wire Line
	5450 6000 5450 6100
Connection ~ 5450 6100
Wire Wire Line
	5450 6100 6050 6100
Wire Wire Line
	9000 5750 9000 5550
$Comp
L Device:C C320
U 1 1 5FAA4FED
P 1800 6850
F 0 "C320" H 1915 6896 50  0000 L CNN
F 1 "1u" H 1915 6805 50  0000 L CNN
F 2 "SamacSys_Parts:CAPC7261X530N" H 1838 6700 50  0001 C CNN
F 3 "~" H 1800 6850 50  0001 C CNN
	1    1800 6850
	1    0    0    -1  
$EndComp
$Comp
L Device:C C332
U 1 1 5FAA7D14
P 1800 7250
F 0 "C332" H 1915 7296 50  0000 L CNN
F 1 "1u" H 1915 7205 50  0000 L CNN
F 2 "SamacSys_Parts:CAPC7261X530N" H 1838 7100 50  0001 C CNN
F 3 "~" H 1800 7250 50  0001 C CNN
	1    1800 7250
	1    0    0    -1  
$EndComp
$Comp
L Device:C C333
U 1 1 5FAA821E
P 2250 7250
F 0 "C333" H 2365 7296 50  0000 L CNN
F 1 "1u" H 2365 7205 50  0000 L CNN
F 2 "SamacSys_Parts:CAPC7261X530N" H 2288 7100 50  0001 C CNN
F 3 "~" H 2250 7250 50  0001 C CNN
	1    2250 7250
	1    0    0    -1  
$EndComp
$Comp
L Device:C C321
U 1 1 5FAA888B
P 2250 6850
F 0 "C321" H 2365 6896 50  0000 L CNN
F 1 "1u" H 2365 6805 50  0000 L CNN
F 2 "SamacSys_Parts:CAPC7261X530N" H 2288 6700 50  0001 C CNN
F 3 "~" H 2250 6850 50  0001 C CNN
	1    2250 6850
	1    0    0    -1  
$EndComp
$Comp
L Connector_Generic:Conn_01x02 J302
U 1 1 5FE46D7D
P 6050 3700
F 0 "J302" V 6014 3512 50  0000 R CNN
F 1 "LED" V 5923 3512 50  0000 R CNN
F 2 "Connector_JST:JST_XH_B2B-XH-AM_1x02_P2.50mm_Vertical" H 6050 3700 50  0001 C CNN
F 3 "~" H 6050 3700 50  0001 C CNN
	1    6050 3700
	0    1    -1   0   
$EndComp
Wire Wire Line
	5950 4050 5450 4050
Connection ~ 5450 4050
Wire Wire Line
	5450 4050 5450 4500
Connection ~ 6050 4500
Wire Wire Line
	6050 4500 6200 4500
Connection ~ 9100 5100
Wire Wire Line
	6600 5100 6050 5100
Connection ~ 6050 5100
Wire Wire Line
	6050 5100 6050 5000
Wire Wire Line
	7450 4800 7600 4800
Wire Wire Line
	7550 5950 7700 5950
Wire Wire Line
	7700 5950 7700 5800
Text GLabel 4000 5050 0    50   Input ~ 0
PG
Wire Wire Line
	4000 5050 4150 5050
Wire Wire Line
	9100 5450 9100 5100
Connection ~ 9000 5550
Wire Wire Line
	9000 5550 9000 5200
NoConn ~ 7800 5050
NoConn ~ 7400 5050
Wire Wire Line
	10450 3500 10450 5450
Wire Wire Line
	10450 5450 9900 5450
Wire Wire Line
	5450 3500 10450 3500
Wire Wire Line
	9900 5550 10450 5550
Wire Wire Line
	10450 5550 10450 6100
Wire Wire Line
	10450 6100 6600 6100
Wire Wire Line
	6600 6100 6600 5100
Wire Wire Line
	9100 4900 8500 4900
Connection ~ 8500 4900
$Comp
L Device:LED D301
U 1 1 5FEA534A
P 5750 4500
F 0 "D301" H 5743 4245 50  0000 C CNN
F 1 "LED" H 5743 4336 50  0000 C CNN
F 2 "Connector_JST:JST_XH_B2B-XH-AM_1x02_P2.50mm_Vertical" H 5750 4500 50  0001 C CNN
F 3 "~" H 5750 4500 50  0001 C CNN
	1    5750 4500
	-1   0    0    1   
$EndComp
Wire Wire Line
	5900 4500 6050 4500
Wire Wire Line
	5450 4500 5600 4500
Wire Wire Line
	8800 750  9650 750 
Wire Wire Line
	8800 3050 9650 3050
$Comp
L SamacSys_Parts:Molex_43045-0425 J301
U 1 1 5FDAF20C
P 3300 2050
F 0 "J301" H 3928 2171 50  0000 L CNN
F 1 "DC in" H 3928 2080 50  0000 L CNN
F 2 "SamacSys_Parts:430450425" H 4150 2350 50  0001 L CNN
F 3 "https://www.molex.com/pdm_docs/sd/430452227_sd.pdf" H 4150 2250 50  0001 L CNN
F 4 "Micro-Fit 3.0 Vertical Header, 3.00mm Pitch, Dual Row,  Circuits, with PCB Polarizing Peg, Tin, Glow-Wire Capable, Black" H 4150 2150 50  0001 L CNN "Description"
F 5 "10.16" H 4150 2050 50  0001 L CNN "Height"
F 6 "538-43045-0425" H 4150 1950 50  0001 L CNN "Mouser Part Number"
F 7 "https://www.mouser.co.uk/ProductDetail/Molex/43045-0425?qs=jbJnFeK%2FK6zj9cttOVFa9Q%3D%3D" H 4150 1850 50  0001 L CNN "Mouser Price/Stock"
F 8 "Molex" H 4150 1750 50  0001 L CNN "Manufacturer_Name"
F 9 "43045-0425" H 4150 1650 50  0001 L CNN "Manufacturer_Part_Number"
	1    3300 2050
	1    0    0    -1  
$EndComp
NoConn ~ 3600 1550
NoConn ~ 3600 2400
Wire Wire Line
	3800 1550 3800 1450
Wire Wire Line
	3800 1450 3950 1450
Wire Wire Line
	3950 1450 3950 1650
Wire Wire Line
	3950 1650 4950 1650
Connection ~ 4950 1650
Wire Wire Line
	4950 750  3700 750 
Wire Wire Line
	3700 750  3700 1550
Connection ~ 4950 750 
Wire Wire Line
	3700 2400 3700 2500
Wire Wire Line
	4000 2500 4000 2150
Wire Wire Line
	4000 2150 4950 2150
Wire Wire Line
	3700 2500 4000 2500
Connection ~ 4950 2150
Wire Wire Line
	4950 3050 3800 3050
Wire Wire Line
	3800 3050 3800 2400
Connection ~ 4950 3050
$Comp
L Connector_Generic:Conn_02x02_Odd_Even J305
U 1 1 5FE35329
P 9700 5450
F 0 "J305" H 9750 5250 50  0000 C CNN
F 1 "Local/Remote-Unmute" H 9750 5150 50  0000 C CNN
F 2 "Connector_PinHeader_2.54mm:PinHeader_2x02_P2.54mm_Vertical" H 9700 5450 50  0001 C CNN
F 3 "~" H 9700 5450 50  0001 C CNN
	1    9700 5450
	-1   0    0    -1  
$EndComp
Wire Wire Line
	9100 5450 9400 5450
Wire Wire Line
	9000 5550 9400 5550
Wire Wire Line
	5850 6650 6450 6650
Wire Wire Line
	5850 7450 6450 7450
Wire Wire Line
	900  7050 900  7100
Connection ~ 900  7050
Wire Wire Line
	1350 7050 900  7050
Wire Wire Line
	1350 7050 1350 7100
Connection ~ 1350 7050
Wire Wire Line
	1350 7050 1800 7050
Connection ~ 1350 7450
Connection ~ 1350 6650
Wire Wire Line
	900  6650 900  6700
Wire Wire Line
	1350 6650 900  6650
Wire Wire Line
	900  7000 900  7050
Wire Wire Line
	900  7450 900  7400
Wire Wire Line
	1350 7450 900  7450
Wire Wire Line
	1350 6650 1350 6700
Wire Wire Line
	1800 6650 1350 6650
Wire Wire Line
	1350 7000 1350 7050
Wire Wire Line
	1350 7450 1350 7400
Wire Wire Line
	1800 7450 1350 7450
$Comp
L Device:C C318
U 1 1 608194A8
P 900 6850
F 0 "C318" H 1015 6896 50  0000 L CNN
F 1 "1u" H 1015 6805 50  0000 L CNN
F 2 "SamacSys_Parts:CAPC7261X530N" H 938 6700 50  0001 C CNN
F 3 "~" H 900 6850 50  0001 C CNN
	1    900  6850
	1    0    0    -1  
$EndComp
$Comp
L Device:C C330
U 1 1 608194AE
P 900 7250
F 0 "C330" H 1015 7296 50  0000 L CNN
F 1 "1u" H 1015 7205 50  0000 L CNN
F 2 "SamacSys_Parts:CAPC7261X530N" H 938 7100 50  0001 C CNN
F 3 "~" H 900 7250 50  0001 C CNN
	1    900  7250
	1    0    0    -1  
$EndComp
$Comp
L Device:C C331
U 1 1 608194B4
P 1350 7250
F 0 "C331" H 1465 7296 50  0000 L CNN
F 1 "1u" H 1465 7205 50  0000 L CNN
F 2 "SamacSys_Parts:CAPC7261X530N" H 1388 7100 50  0001 C CNN
F 3 "~" H 1350 7250 50  0001 C CNN
	1    1350 7250
	1    0    0    -1  
$EndComp
$Comp
L Device:C C319
U 1 1 608194BA
P 1350 6850
F 0 "C319" H 1465 6896 50  0000 L CNN
F 1 "1u" H 1465 6805 50  0000 L CNN
F 2 "SamacSys_Parts:CAPC7261X530N" H 1388 6700 50  0001 C CNN
F 3 "~" H 1350 6850 50  0001 C CNN
	1    1350 6850
	1    0    0    -1  
$EndComp
Connection ~ 1800 6650
Connection ~ 1800 7450
Wire Wire Line
	6100 1650 6550 1650
$Comp
L Device:R R303
U 1 1 60544515
P 6100 1400
F 0 "R303" H 6170 1446 50  0000 L CNN
F 1 "15k63" H 6170 1355 50  0000 L CNN
F 2 "Resistor_SMD:R_1206_3216Metric" V 6030 1400 50  0001 C CNN
F 3 "~" H 6100 1400 50  0001 C CNN
	1    6100 1400
	1    0    0    -1  
$EndComp
$Comp
L Device:R R306
U 1 1 6059ACA8
P 6100 2800
F 0 "R306" H 6170 2846 50  0000 L CNN
F 1 "15k63" H 6170 2755 50  0000 L CNN
F 2 "Resistor_SMD:R_1206_3216Metric" V 6030 2800 50  0001 C CNN
F 3 "~" H 6100 2800 50  0001 C CNN
	1    6100 2800
	1    0    0    -1  
$EndComp
Wire Wire Line
	5750 2550 6100 2550
Wire Wire Line
	6050 3050 6100 3050
Wire Wire Line
	6100 2950 6100 3050
Connection ~ 6100 3050
Wire Wire Line
	6100 3050 6550 3050
Wire Wire Line
	6100 2650 6100 2550
Connection ~ 6100 2550
Wire Wire Line
	6100 2550 6550 2550
$Comp
L Device:CP C?
U 1 1 605E485D
P 2700 6850
AR Path="/605E485D" Ref="C?"  Part="1" 
AR Path="/5FC0DE84/605E485D" Ref="C322"  Part="1" 
F 0 "C322" H 2818 6896 50  0000 L CNN
F 1 "10u" H 2818 6805 50  0000 L CNN
F 2 "Capacitor_SMD:CP_Elec_6.3x5.3" H 2738 6700 50  0001 C CNN
F 3 "~" H 2700 6850 50  0001 C CNN
	1    2700 6850
	1    0    0    -1  
$EndComp
$Comp
L Device:CP C?
U 1 1 605E75E5
P 3150 6850
AR Path="/605E75E5" Ref="C?"  Part="1" 
AR Path="/5FC0DE84/605E75E5" Ref="C323"  Part="1" 
F 0 "C323" H 3268 6896 50  0000 L CNN
F 1 "10u" H 3268 6805 50  0000 L CNN
F 2 "Capacitor_SMD:CP_Elec_6.3x5.3" H 3188 6700 50  0001 C CNN
F 3 "~" H 3150 6850 50  0001 C CNN
	1    3150 6850
	1    0    0    -1  
$EndComp
$Comp
L Device:CP C?
U 1 1 605FEBCA
P 3600 6850
AR Path="/605FEBCA" Ref="C?"  Part="1" 
AR Path="/5FC0DE84/605FEBCA" Ref="C324"  Part="1" 
F 0 "C324" H 3718 6896 50  0000 L CNN
F 1 "10u" H 3718 6805 50  0000 L CNN
F 2 "Capacitor_SMD:CP_Elec_6.3x5.3" H 3638 6700 50  0001 C CNN
F 3 "~" H 3600 6850 50  0001 C CNN
	1    3600 6850
	1    0    0    -1  
$EndComp
$Comp
L Device:CP C?
U 1 1 60615F3A
P 4050 6850
AR Path="/60615F3A" Ref="C?"  Part="1" 
AR Path="/5FC0DE84/60615F3A" Ref="C325"  Part="1" 
F 0 "C325" H 4168 6896 50  0000 L CNN
F 1 "10u" H 4168 6805 50  0000 L CNN
F 2 "Capacitor_SMD:CP_Elec_6.3x5.3" H 4088 6700 50  0001 C CNN
F 3 "~" H 4050 6850 50  0001 C CNN
	1    4050 6850
	1    0    0    -1  
$EndComp
$Comp
L Device:CP C?
U 1 1 6062D2A6
P 4500 6850
AR Path="/6062D2A6" Ref="C?"  Part="1" 
AR Path="/5FC0DE84/6062D2A6" Ref="C326"  Part="1" 
F 0 "C326" H 4618 6896 50  0000 L CNN
F 1 "10u" H 4618 6805 50  0000 L CNN
F 2 "Capacitor_SMD:CP_Elec_6.3x5.3" H 4538 6700 50  0001 C CNN
F 3 "~" H 4500 6850 50  0001 C CNN
	1    4500 6850
	1    0    0    -1  
$EndComp
$Comp
L Device:CP C?
U 1 1 6064464E
P 4950 6850
AR Path="/6064464E" Ref="C?"  Part="1" 
AR Path="/5FC0DE84/6064464E" Ref="C327"  Part="1" 
F 0 "C327" H 5068 6896 50  0000 L CNN
F 1 "10u" H 5068 6805 50  0000 L CNN
F 2 "Capacitor_SMD:CP_Elec_6.3x5.3" H 4988 6700 50  0001 C CNN
F 3 "~" H 4950 6850 50  0001 C CNN
	1    4950 6850
	1    0    0    -1  
$EndComp
$Comp
L Device:CP C?
U 1 1 6065B9DE
P 5400 6850
AR Path="/6065B9DE" Ref="C?"  Part="1" 
AR Path="/5FC0DE84/6065B9DE" Ref="C328"  Part="1" 
F 0 "C328" H 5518 6896 50  0000 L CNN
F 1 "10u" H 5518 6805 50  0000 L CNN
F 2 "Capacitor_SMD:CP_Elec_6.3x5.3" H 5438 6700 50  0001 C CNN
F 3 "~" H 5400 6850 50  0001 C CNN
	1    5400 6850
	1    0    0    -1  
$EndComp
$Comp
L Device:CP C?
U 1 1 60672D96
P 5850 6850
AR Path="/60672D96" Ref="C?"  Part="1" 
AR Path="/5FC0DE84/60672D96" Ref="C329"  Part="1" 
F 0 "C329" H 5968 6896 50  0000 L CNN
F 1 "10u" H 5968 6805 50  0000 L CNN
F 2 "Capacitor_SMD:CP_Elec_6.3x5.3" H 5888 6700 50  0001 C CNN
F 3 "~" H 5850 6850 50  0001 C CNN
	1    5850 6850
	1    0    0    -1  
$EndComp
$Comp
L Device:CP C?
U 1 1 6068E14A
P 2700 7250
AR Path="/6068E14A" Ref="C?"  Part="1" 
AR Path="/5FC0DE84/6068E14A" Ref="C334"  Part="1" 
F 0 "C334" H 2818 7296 50  0000 L CNN
F 1 "10u" H 2818 7205 50  0000 L CNN
F 2 "Capacitor_SMD:CP_Elec_6.3x5.3" H 2738 7100 50  0001 C CNN
F 3 "~" H 2700 7250 50  0001 C CNN
	1    2700 7250
	1    0    0    -1  
$EndComp
$Comp
L Device:CP C?
U 1 1 6068E3BA
P 3150 7250
AR Path="/6068E3BA" Ref="C?"  Part="1" 
AR Path="/5FC0DE84/6068E3BA" Ref="C335"  Part="1" 
F 0 "C335" H 3268 7296 50  0000 L CNN
F 1 "10u" H 3268 7205 50  0000 L CNN
F 2 "Capacitor_SMD:CP_Elec_6.3x5.3" H 3188 7100 50  0001 C CNN
F 3 "~" H 3150 7250 50  0001 C CNN
	1    3150 7250
	1    0    0    -1  
$EndComp
$Comp
L Device:CP C?
U 1 1 6068E3C4
P 3600 7250
AR Path="/6068E3C4" Ref="C?"  Part="1" 
AR Path="/5FC0DE84/6068E3C4" Ref="C336"  Part="1" 
F 0 "C336" H 3718 7296 50  0000 L CNN
F 1 "10u" H 3718 7205 50  0000 L CNN
F 2 "Capacitor_SMD:CP_Elec_6.3x5.3" H 3638 7100 50  0001 C CNN
F 3 "~" H 3600 7250 50  0001 C CNN
	1    3600 7250
	1    0    0    -1  
$EndComp
$Comp
L Device:CP C?
U 1 1 6068E3CE
P 4050 7250
AR Path="/6068E3CE" Ref="C?"  Part="1" 
AR Path="/5FC0DE84/6068E3CE" Ref="C337"  Part="1" 
F 0 "C337" H 4168 7296 50  0000 L CNN
F 1 "10u" H 4168 7205 50  0000 L CNN
F 2 "Capacitor_SMD:CP_Elec_6.3x5.3" H 4088 7100 50  0001 C CNN
F 3 "~" H 4050 7250 50  0001 C CNN
	1    4050 7250
	1    0    0    -1  
$EndComp
$Comp
L Device:CP C?
U 1 1 6068E3D8
P 4500 7250
AR Path="/6068E3D8" Ref="C?"  Part="1" 
AR Path="/5FC0DE84/6068E3D8" Ref="C338"  Part="1" 
F 0 "C338" H 4618 7296 50  0000 L CNN
F 1 "10u" H 4618 7205 50  0000 L CNN
F 2 "Capacitor_SMD:CP_Elec_6.3x5.3" H 4538 7100 50  0001 C CNN
F 3 "~" H 4500 7250 50  0001 C CNN
	1    4500 7250
	1    0    0    -1  
$EndComp
$Comp
L Device:CP C?
U 1 1 6068E3E2
P 4950 7250
AR Path="/6068E3E2" Ref="C?"  Part="1" 
AR Path="/5FC0DE84/6068E3E2" Ref="C339"  Part="1" 
F 0 "C339" H 5068 7296 50  0000 L CNN
F 1 "10u" H 5068 7205 50  0000 L CNN
F 2 "Capacitor_SMD:CP_Elec_6.3x5.3" H 4988 7100 50  0001 C CNN
F 3 "~" H 4950 7250 50  0001 C CNN
	1    4950 7250
	1    0    0    -1  
$EndComp
$Comp
L Device:CP C?
U 1 1 6068E3EC
P 5400 7250
AR Path="/6068E3EC" Ref="C?"  Part="1" 
AR Path="/5FC0DE84/6068E3EC" Ref="C340"  Part="1" 
F 0 "C340" H 5518 7296 50  0000 L CNN
F 1 "10u" H 5518 7205 50  0000 L CNN
F 2 "Capacitor_SMD:CP_Elec_6.3x5.3" H 5438 7100 50  0001 C CNN
F 3 "~" H 5400 7250 50  0001 C CNN
	1    5400 7250
	1    0    0    -1  
$EndComp
$Comp
L Device:CP C?
U 1 1 6068E3F6
P 5850 7250
AR Path="/6068E3F6" Ref="C?"  Part="1" 
AR Path="/5FC0DE84/6068E3F6" Ref="C341"  Part="1" 
F 0 "C341" H 5968 7296 50  0000 L CNN
F 1 "10u" H 5968 7205 50  0000 L CNN
F 2 "Capacitor_SMD:CP_Elec_6.3x5.3" H 5888 7100 50  0001 C CNN
F 3 "~" H 5850 7250 50  0001 C CNN
	1    5850 7250
	1    0    0    -1  
$EndComp
Wire Wire Line
	5950 3900 5950 4050
Wire Wire Line
	6050 3900 6050 4500
$EndSCHEMATC
