EESchema Schematic File Version 4
EELAYER 30 0
EELAYER END
$Descr A3 16535 11693
encoding utf-8
Sheet 10 11
Title "DAC-DR"
Date "2020-04-03"
Rev "0.14"
Comp "T5! DIY Audio"
Comment1 "DAC Done Right (TM)"
Comment2 ""
Comment3 ""
Comment4 ""
$EndDescr
$Comp
L SamacSys_Parts:SY-12-K K?
U 1 1 5E623E2B
P 7800 3600
AR Path="/5E623E2B" Ref="K?"  Part="1" 
AR Path="/5E5DB31C/5E623E2B" Ref="K1001"  Part="1" 
F 0 "K1001" V 7533 3700 50  0000 C CNN
F 1 "SY-12-K" V 7624 3700 50  0000 C CNN
F 2 "SamacSys_Parts:SY-12-K" H 8550 3700 50  0001 L CNN
F 3 "https://componentsearchengine.com/Datasheets/1/SY-12-K.pdf" H 8550 3600 50  0001 L CNN
F 4 "" H 8550 3400 50  0001 L CNN "Height"
	1    7800 3600
	0    -1   1    0   
$EndComp
$Comp
L Device:R R?
U 1 1 5E623E35
P 12950 5500
AR Path="/5E623E35" Ref="R?"  Part="1" 
AR Path="/5E5DB31C/5E623E35" Ref="R1035"  Part="1" 
F 0 "R1035" V 12743 5500 50  0000 C CNN
F 1 "887" V 12834 5500 50  0000 C CNN
F 2 "Resistor_SMD:R_1206_3216Metric" V 12880 5500 50  0001 C CNN
F 3 "~" H 12950 5500 50  0001 C CNN
	1    12950 5500
	0    1    1    0   
$EndComp
Wire Wire Line
	12800 5500 12600 5500
$Comp
L Device:R R?
U 1 1 5E623E41
P 14200 5500
AR Path="/5E623E41" Ref="R?"  Part="1" 
AR Path="/5E5DB31C/5E623E41" Ref="R1039"  Part="1" 
F 0 "R1039" V 13993 5500 50  0000 C CNN
F 1 "22" V 14084 5500 50  0000 C CNN
F 2 "Resistor_SMD:R_1206_3216Metric" V 14130 5500 50  0001 C CNN
F 3 "~" H 14200 5500 50  0001 C CNN
	1    14200 5500
	0    -1   -1   0   
$EndComp
Wire Wire Line
	6650 5500 6650 5600
Connection ~ 6650 5500
Wire Wire Line
	6650 5500 6750 5500
Wire Wire Line
	6550 5500 6650 5500
Wire Wire Line
	6250 5500 6350 5500
$Comp
L Device:Net-Tie_2 NT?
U 1 1 5E623E53
P 6850 5500
AR Path="/5E623E53" Ref="NT?"  Part="1" 
AR Path="/5E5DB31C/5E623E53" Ref="NT1003"  Part="1" 
F 0 "NT1003" H 6850 5319 50  0000 C CNN
F 1 "NetTie" H 6850 5410 50  0000 C CNN
F 2 "T5_w11:NetTie_0.25" H 6850 5500 50  0001 C CNN
F 3 "~" H 6850 5500 50  0001 C CNN
	1    6850 5500
	-1   0    0    1   
$EndComp
$Comp
L Device:Net-Tie_2 NT?
U 1 1 5E623E59
P 6450 5500
AR Path="/5E623E59" Ref="NT?"  Part="1" 
AR Path="/5E5DB31C/5E623E59" Ref="NT1002"  Part="1" 
F 0 "NT1002" H 6450 5319 50  0000 C CNN
F 1 "NetTie" H 6450 5410 50  0000 C CNN
F 2 "T5_w11:NetTie_0.25" H 6450 5500 50  0001 C CNN
F 3 "~" H 6450 5500 50  0001 C CNN
	1    6450 5500
	-1   0    0    1   
$EndComp
$Comp
L Device:Net-Tie_2 NT?
U 1 1 5E623E5F
P 5750 7650
AR Path="/5E623E5F" Ref="NT?"  Part="1" 
AR Path="/5E5DB31C/5E623E5F" Ref="NT1001"  Part="1" 
F 0 "NT1001" V 5704 7694 50  0000 L CNN
F 1 "NetTie" V 5795 7694 50  0000 L CNN
F 2 "T5_w11:NetTie_0.25" H 5750 7650 50  0001 C CNN
F 3 "~" H 5750 7650 50  0001 C CNN
	1    5750 7650
	0    1    1    0   
$EndComp
Connection ~ 13350 4500
$Comp
L power:GND #PWR?
U 1 1 5E623E70
P 13950 5600
AR Path="/5E623E70" Ref="#PWR?"  Part="1" 
AR Path="/5E5DB31C/5E623E70" Ref="#PWR01007"  Part="1" 
F 0 "#PWR01007" H 13950 5350 50  0001 C CNN
F 1 "GND" H 13955 5427 50  0000 C CNN
F 2 "" H 13950 5600 50  0001 C CNN
F 3 "" H 13950 5600 50  0001 C CNN
	1    13950 5600
	1    0    0    -1  
$EndComp
Connection ~ 12600 5500
Wire Wire Line
	13350 4500 13100 4500
Wire Wire Line
	13350 5000 13350 4500
Wire Wire Line
	13300 5000 13350 5000
Connection ~ 12600 4500
Wire Wire Line
	12800 4500 12600 4500
$Comp
L Device:R R?
U 1 1 5E623E7C
P 12950 4500
AR Path="/5E623E7C" Ref="R?"  Part="1" 
AR Path="/5E5DB31C/5E623E7C" Ref="R1034"  Part="1" 
F 0 "R1034" V 12743 4500 50  0000 C CNN
F 1 "887" V 12834 4500 50  0000 C CNN
F 2 "Resistor_SMD:R_1206_3216Metric" V 12880 4500 50  0001 C CNN
F 3 "~" H 12950 4500 50  0001 C CNN
	1    12950 4500
	0    1    1    0   
$EndComp
Wire Wire Line
	12600 5100 12700 5100
Wire Wire Line
	12600 5500 12600 5100
Wire Wire Line
	12450 5500 12600 5500
Wire Wire Line
	12600 4500 12450 4500
Wire Wire Line
	12600 4900 12600 4500
Wire Wire Line
	12700 4900 12600 4900
$Comp
L Device:R R?
U 1 1 5E623E88
P 12300 5500
AR Path="/5E623E88" Ref="R?"  Part="1" 
AR Path="/5E5DB31C/5E623E88" Ref="R1033"  Part="1" 
F 0 "R1033" V 12093 5500 50  0000 C CNN
F 1 "887" V 12184 5500 50  0000 C CNN
F 2 "Resistor_SMD:R_1206_3216Metric" V 12230 5500 50  0001 C CNN
F 3 "~" H 12300 5500 50  0001 C CNN
	1    12300 5500
	0    1    1    0   
$EndComp
$Comp
L Device:R R?
U 1 1 5E623E8E
P 12300 4500
AR Path="/5E623E8E" Ref="R?"  Part="1" 
AR Path="/5E5DB31C/5E623E8E" Ref="R1032"  Part="1" 
F 0 "R1032" V 12093 4500 50  0000 C CNN
F 1 "887" V 12184 4500 50  0000 C CNN
F 2 "Resistor_SMD:R_1206_3216Metric" V 12230 4500 50  0001 C CNN
F 3 "~" H 12300 4500 50  0001 C CNN
	1    12300 4500
	0    1    1    0   
$EndComp
$Comp
L power:GND #PWR?
U 1 1 5E623E94
P 6650 5600
AR Path="/5E623E94" Ref="#PWR?"  Part="1" 
AR Path="/5E5DB31C/5E623E94" Ref="#PWR01006"  Part="1" 
F 0 "#PWR01006" H 6650 5350 50  0001 C CNN
F 1 "GND" H 6655 5427 50  0000 C CNN
F 2 "" H 6650 5600 50  0001 C CNN
F 3 "" H 6650 5600 50  0001 C CNN
	1    6650 5600
	1    0    0    -1  
$EndComp
Wire Wire Line
	6450 4500 6250 4500
Wire Wire Line
	6450 5100 6450 4500
Wire Wire Line
	6400 5100 6450 5100
Wire Wire Line
	5700 4500 5600 4500
Connection ~ 5700 4500
Wire Wire Line
	5700 5000 5700 4500
Wire Wire Line
	5800 5000 5700 5000
Wire Wire Line
	5700 5500 5950 5500
Connection ~ 5700 5500
Wire Wire Line
	5700 5200 5800 5200
Wire Wire Line
	5700 5500 5700 5200
Connection ~ 5300 5500
Wire Wire Line
	5300 5500 5700 5500
Connection ~ 5600 4500
Wire Wire Line
	5950 4500 5700 4500
$Comp
L Device:R R?
U 1 1 5E623EA9
P 6100 5500
AR Path="/5E623EA9" Ref="R?"  Part="1" 
AR Path="/5E5DB31C/5E623EA9" Ref="R1017"  Part="1" 
F 0 "R1017" V 5893 5500 50  0000 C CNN
F 1 "887" V 5984 5500 50  0000 C CNN
F 2 "Resistor_SMD:R_1206_3216Metric" V 6030 5500 50  0001 C CNN
F 3 "~" H 6100 5500 50  0001 C CNN
	1    6100 5500
	0    1    1    0   
$EndComp
$Comp
L Device:R R?
U 1 1 5E623EAF
P 6100 4500
AR Path="/5E623EAF" Ref="R?"  Part="1" 
AR Path="/5E5DB31C/5E623EAF" Ref="R1016"  Part="1" 
F 0 "R1016" V 5893 4500 50  0000 C CNN
F 1 "887" V 5984 4500 50  0000 C CNN
F 2 "Resistor_SMD:R_1206_3216Metric" V 6030 4500 50  0001 C CNN
F 3 "~" H 6100 4500 50  0001 C CNN
	1    6100 4500
	0    1    1    0   
$EndComp
Wire Wire Line
	5600 7550 5750 7550
$Comp
L power:GND #PWR?
U 1 1 5E623EB6
P 5750 7750
AR Path="/5E623EB6" Ref="#PWR?"  Part="1" 
AR Path="/5E5DB31C/5E623EB6" Ref="#PWR01005"  Part="1" 
F 0 "#PWR01005" H 5750 7500 50  0001 C CNN
F 1 "GND" H 5755 7577 50  0000 C CNN
F 2 "" H 5750 7750 50  0001 C CNN
F 3 "" H 5750 7750 50  0001 C CNN
	1    5750 7750
	1    0    0    -1  
$EndComp
Wire Wire Line
	5600 4500 5600 5550
Wire Wire Line
	4600 4500 5600 4500
Wire Wire Line
	5600 5850 5600 7550
$Comp
L Device:R R?
U 1 1 5E623EBF
P 5600 5700
AR Path="/5E623EBF" Ref="R?"  Part="1" 
AR Path="/5E5DB31C/5E623EBF" Ref="R1015"  Part="1" 
F 0 "R1015" H 5670 5746 50  0000 L CNN
F 1 "10k" H 5670 5655 50  0000 L CNN
F 2 "Resistor_SMD:R_1206_3216Metric" V 5530 5700 50  0001 C CNN
F 3 "~" H 5600 5700 50  0001 C CNN
	1    5600 5700
	1    0    0    -1  
$EndComp
Connection ~ 5600 7550
Wire Wire Line
	5600 7900 5100 7900
Wire Wire Line
	5600 7550 5600 7900
Wire Wire Line
	5100 7550 5600 7550
Connection ~ 4600 7550
Wire Wire Line
	4600 7900 4600 7550
Wire Wire Line
	4800 7900 4600 7900
Wire Wire Line
	4800 7550 4600 7550
$Comp
L Device:R R?
U 1 1 5E623ECD
P 4950 7550
AR Path="/5E623ECD" Ref="R?"  Part="1" 
AR Path="/5E5DB31C/5E623ECD" Ref="R1013"  Part="1" 
F 0 "R1013" V 5157 7550 50  0000 C CNN
F 1 "220k" V 5066 7550 50  0000 C CNN
F 2 "Resistor_SMD:R_1206_3216Metric" V 4880 7550 50  0001 C CNN
F 3 "~" H 4950 7550 50  0001 C CNN
	1    4950 7550
	0    -1   -1   0   
$EndComp
Wire Wire Line
	4050 6850 4050 6900
Connection ~ 4050 6850
Wire Wire Line
	4100 6850 4050 6850
$Comp
L Device:R R?
U 1 1 5E623ED6
P 4250 6850
AR Path="/5E623ED6" Ref="R?"  Part="1" 
AR Path="/5E5DB31C/5E623ED6" Ref="R1009"  Part="1" 
F 0 "R1009" V 4457 6850 50  0000 C CNN
F 1 "10k" V 4366 6850 50  0000 C CNN
F 2 "Resistor_SMD:R_1206_3216Metric" V 4180 6850 50  0001 C CNN
F 3 "~" H 4250 6850 50  0001 C CNN
	1    4250 6850
	0    -1   -1   0   
$EndComp
Wire Wire Line
	5300 5500 5300 5550
Wire Wire Line
	4600 5500 5300 5500
Connection ~ 5300 5900
Wire Wire Line
	5300 5850 5300 5900
$Comp
L Device:R R?
U 1 1 5E623EE0
P 5300 5700
AR Path="/5E623EE0" Ref="R?"  Part="1" 
AR Path="/5E5DB31C/5E623EE0" Ref="R1014"  Part="1" 
F 0 "R1014" H 5370 5746 50  0000 L CNN
F 1 "10k" H 5370 5655 50  0000 L CNN
F 2 "Resistor_SMD:R_1206_3216Metric" V 5230 5700 50  0001 C CNN
F 3 "~" H 5300 5700 50  0001 C CNN
	1    5300 5700
	1    0    0    -1  
$EndComp
Connection ~ 4600 5900
Wire Wire Line
	4400 5900 4600 5900
Wire Wire Line
	4600 5900 4750 5900
Wire Wire Line
	4600 6650 4600 5900
Wire Wire Line
	4650 6650 4600 6650
Wire Wire Line
	5300 6250 5300 6750
Connection ~ 5300 6250
Wire Wire Line
	5100 6250 5300 6250
Wire Wire Line
	5300 6750 5250 6750
Wire Wire Line
	5300 5900 5300 6250
Wire Wire Line
	5100 5900 5300 5900
Wire Wire Line
	4750 5900 4750 6250
Connection ~ 4750 5900
Wire Wire Line
	4750 6250 4800 6250
Wire Wire Line
	4800 5900 4750 5900
$Comp
L Device:R R?
U 1 1 5E623EF5
P 4950 6250
AR Path="/5E623EF5" Ref="R?"  Part="1" 
AR Path="/5E5DB31C/5E623EF5" Ref="R1012"  Part="1" 
F 0 "R1012" V 5157 6250 50  0000 C CNN
F 1 "220k" V 5066 6250 50  0000 C CNN
F 2 "Resistor_SMD:R_1206_3216Metric" V 4880 6250 50  0001 C CNN
F 3 "~" H 4950 6250 50  0001 C CNN
	1    4950 6250
	0    -1   -1   0   
$EndComp
$Comp
L Device:R R?
U 1 1 5E623EFB
P 4250 5900
AR Path="/5E623EFB" Ref="R?"  Part="1" 
AR Path="/5E5DB31C/5E623EFB" Ref="R1008"  Part="1" 
F 0 "R1008" V 4457 5900 50  0000 C CNN
F 1 "10k" V 4366 5900 50  0000 C CNN
F 2 "Resistor_SMD:R_1206_3216Metric" V 4180 5900 50  0001 C CNN
F 3 "~" H 4250 5900 50  0001 C CNN
	1    4250 5900
	0    -1   -1   0   
$EndComp
Wire Wire Line
	3650 5900 4100 5900
Wire Wire Line
	4050 5400 4050 6850
$Comp
L Device:C C?
U 1 1 5E623F05
P 4050 7050
AR Path="/5E623F05" Ref="C?"  Part="1" 
AR Path="/5E5DB31C/5E623F05" Ref="C1004"  Part="1" 
F 0 "C1004" H 4165 7096 50  0000 L CNN
F 1 "10u" H 4165 7005 50  0000 L CNN
F 2 "T5_w11:C_Rect_L11mm_W7.2mm_P5.00mm" H 4088 6900 50  0001 C CNN
F 3 "~" H 4050 7050 50  0001 C CNN
F 4 "647-UUP1C100MCL1GS" H 4050 7050 50  0001 C CNN "mouser#"
F 5 "UUP1C100MCL1GS" H 4050 7050 50  0001 C CNN "manf#"
	1    4050 7050
	1    0    0    -1  
$EndComp
Wire Wire Line
	4050 7300 4050 7200
$Comp
L power:GND #PWR?
U 1 1 5E623F0C
P 4050 7300
AR Path="/5E623F0C" Ref="#PWR?"  Part="1" 
AR Path="/5E5DB31C/5E623F0C" Ref="#PWR01003"  Part="1" 
F 0 "#PWR01003" H 4050 7050 50  0001 C CNN
F 1 "GND" H 4055 7127 50  0000 C CNN
F 2 "" H 4050 7300 50  0001 C CNN
F 3 "" H 4050 7300 50  0001 C CNN
	1    4050 7300
	1    0    0    -1  
$EndComp
Wire Wire Line
	3650 6900 3650 7300
$Comp
L power:GND #PWR?
U 1 1 5E623F13
P 3650 7300
AR Path="/5E623F13" Ref="#PWR?"  Part="1" 
AR Path="/5E5DB31C/5E623F13" Ref="#PWR01002"  Part="1" 
F 0 "#PWR01002" H 3650 7050 50  0001 C CNN
F 1 "GND" H 3655 7127 50  0000 C CNN
F 2 "" H 3650 7300 50  0001 C CNN
F 3 "" H 3650 7300 50  0001 C CNN
	1    3650 7300
	1    0    0    -1  
$EndComp
Wire Wire Line
	3650 5900 3650 6600
Connection ~ 3650 5900
Wire Wire Line
	3650 5850 3650 5900
Wire Wire Line
	4050 4500 3650 4500
Wire Wire Line
	4050 5100 4050 4500
$Comp
L Device:R R?
U 1 1 5E623F1F
P 4050 5250
AR Path="/5E623F1F" Ref="R?"  Part="1" 
AR Path="/5E5DB31C/5E623F1F" Ref="R1007"  Part="1" 
F 0 "R1007" H 3980 5204 50  0000 R CNN
F 1 "12k" H 3980 5295 50  0000 R CNN
F 2 "Resistor_SMD:R_1206_3216Metric" V 3980 5250 50  0001 C CNN
F 3 "~" H 4050 5250 50  0001 C CNN
	1    4050 5250
	-1   0    0    1   
$EndComp
Wire Wire Line
	3650 5550 3650 5500
$Comp
L Device:R R?
U 1 1 5E623F26
P 3650 5700
AR Path="/5E623F26" Ref="R?"  Part="1" 
AR Path="/5E5DB31C/5E623F26" Ref="R1006"  Part="1" 
F 0 "R1006" H 3580 5654 50  0000 R CNN
F 1 "12k" H 3580 5745 50  0000 R CNN
F 2 "Resistor_SMD:R_1206_3216Metric" V 3580 5700 50  0001 C CNN
F 3 "~" H 3650 5700 50  0001 C CNN
	1    3650 5700
	-1   0    0    1   
$EndComp
$Comp
L Device:C C?
U 1 1 5E623F2E
P 4950 7900
AR Path="/5E623F2E" Ref="C?"  Part="1" 
AR Path="/5E5DB31C/5E623F2E" Ref="C1006"  Part="1" 
F 0 "C1006" V 4698 7900 50  0000 C CNN
F 1 "10u" V 4789 7900 50  0000 C CNN
F 2 "T5_w11:C_Rect_L11mm_W7.2mm_P5.00mm" H 4988 7750 50  0001 C CNN
F 3 "~" H 4950 7900 50  0001 C CNN
F 4 "647-UUP1C100MCL1GS" V 4950 7900 50  0001 C CNN "mouser#"
F 5 "UUP1C100MCL1GS" V 4950 7900 50  0001 C CNN "manf#"
	1    4950 7900
	0    1    1    0   
$EndComp
$Comp
L Device:C C?
U 1 1 5E623F36
P 4950 5900
AR Path="/5E623F36" Ref="C?"  Part="1" 
AR Path="/5E5DB31C/5E623F36" Ref="C1005"  Part="1" 
F 0 "C1005" V 4698 5900 50  0000 C CNN
F 1 "10u" V 4789 5900 50  0000 C CNN
F 2 "T5_w11:C_Rect_L11mm_W7.2mm_P5.00mm" H 4988 5750 50  0001 C CNN
F 3 "~" H 4950 5900 50  0001 C CNN
F 4 "647-UUP1C100MCL1GS" V 4950 5900 50  0001 C CNN "mouser#"
F 5 "UUP1C100MCL1GS" V 4950 5900 50  0001 C CNN "manf#"
	1    4950 5900
	0    1    1    0   
$EndComp
$Comp
L Device:C C?
U 1 1 5E623F3E
P 3650 6750
AR Path="/5E623F3E" Ref="C?"  Part="1" 
AR Path="/5E5DB31C/5E623F3E" Ref="C1003"  Part="1" 
F 0 "C1003" H 3765 6796 50  0000 L CNN
F 1 "10u" H 3765 6705 50  0000 L CNN
F 2 "T5_w11:C_Rect_L11mm_W7.2mm_P5.00mm" H 3688 6600 50  0001 C CNN
F 3 "~" H 3650 6750 50  0001 C CNN
F 4 "647-UUP1C100MCL1GS" H 3650 6750 50  0001 C CNN "mouser#"
F 5 "UUP1C100MCL1GS" H 3650 6750 50  0001 C CNN "manf#"
	1    3650 6750
	1    0    0    -1  
$EndComp
Connection ~ 3650 5500
Wire Wire Line
	3650 5500 4300 5500
Connection ~ 3650 4700
Wire Wire Line
	3650 4500 3650 4700
Wire Wire Line
	4300 4500 4050 4500
$Comp
L Device:R R?
U 1 1 5E623F49
P 4450 5500
AR Path="/5E623F49" Ref="R?"  Part="1" 
AR Path="/5E5DB31C/5E623F49" Ref="R1011"  Part="1" 
F 0 "R1011" V 4243 5500 50  0000 C CNN
F 1 "887" V 4334 5500 50  0000 C CNN
F 2 "Resistor_SMD:R_1206_3216Metric" V 4380 5500 50  0001 C CNN
F 3 "~" H 4450 5500 50  0001 C CNN
	1    4450 5500
	0    1    1    0   
$EndComp
Wire Wire Line
	3650 4950 3650 4700
Wire Wire Line
	2950 4950 3650 4950
Wire Wire Line
	2950 4800 2950 4950
$Comp
L Device:R R?
U 1 1 5E623F52
P 4450 4500
AR Path="/5E623F52" Ref="R?"  Part="1" 
AR Path="/5E5DB31C/5E623F52" Ref="R1010"  Part="1" 
F 0 "R1010" V 4243 4500 50  0000 C CNN
F 1 "887" V 4334 4500 50  0000 C CNN
F 2 "Resistor_SMD:R_1206_3216Metric" V 4380 4500 50  0001 C CNN
F 3 "~" H 4450 4500 50  0001 C CNN
	1    4450 4500
	0    1    1    0   
$EndComp
Wire Wire Line
	2500 4600 3000 4600
Connection ~ 2500 4600
Wire Wire Line
	2500 4650 2500 4600
Wire Wire Line
	2500 5600 3000 5600
Connection ~ 2500 5600
Wire Wire Line
	2500 5500 2500 5600
Wire Wire Line
	3650 4700 3600 4700
Wire Wire Line
	3000 4800 2950 4800
Wire Wire Line
	2950 5400 3000 5400
Wire Wire Line
	2950 5050 2950 5400
Wire Wire Line
	3650 5050 2950 5050
Wire Wire Line
	3650 5500 3650 5050
Wire Wire Line
	3600 5500 3650 5500
Wire Wire Line
	2500 5050 2500 5200
Connection ~ 2500 5050
Wire Wire Line
	2450 5050 2500 5050
Wire Wire Line
	2500 4950 2500 5050
$Comp
L Device:R R?
U 1 1 5E623F69
P 2500 4800
AR Path="/5E623F69" Ref="R?"  Part="1" 
AR Path="/5E5DB31C/5E623F69" Ref="R1004"  Part="1" 
F 0 "R1004" H 2430 4754 50  0000 R CNN
F 1 "47k" H 2430 4845 50  0000 R CNN
F 2 "Resistor_SMD:R_1206_3216Metric" V 2430 4800 50  0001 C CNN
F 3 "~" H 2500 4800 50  0001 C CNN
	1    2500 4800
	-1   0    0    1   
$EndComp
$Comp
L Device:R R?
U 1 1 5E623F6F
P 2500 5350
AR Path="/5E623F6F" Ref="R?"  Part="1" 
AR Path="/5E5DB31C/5E623F6F" Ref="R1005"  Part="1" 
F 0 "R1005" H 2430 5304 50  0000 R CNN
F 1 "47k" H 2430 5395 50  0000 R CNN
F 2 "Resistor_SMD:R_1206_3216Metric" V 2430 5350 50  0001 C CNN
F 3 "~" H 2500 5350 50  0001 C CNN
	1    2500 5350
	-1   0    0    1   
$EndComp
$Comp
L Device:R R?
U 1 1 5E623F75
P 2300 5050
AR Path="/5E623F75" Ref="R?"  Part="1" 
AR Path="/5E5DB31C/5E623F75" Ref="R1003"  Part="1" 
F 0 "R1003" V 2093 5050 50  0000 C CNN
F 1 "2M2" V 2184 5050 50  0000 C CNN
F 2 "Resistor_SMD:R_1206_3216Metric" V 2230 5050 50  0001 C CNN
F 3 "~" H 2300 5050 50  0001 C CNN
	1    2300 5050
	0    1    1    0   
$EndComp
$Comp
L power:GND #PWR?
U 1 1 5E623F7B
P 1550 5100
AR Path="/5E623F7B" Ref="#PWR?"  Part="1" 
AR Path="/5E5DB31C/5E623F7B" Ref="#PWR01001"  Part="1" 
F 0 "#PWR01001" H 1550 4850 50  0001 C CNN
F 1 "GND" H 1555 4927 50  0000 C CNN
F 2 "" H 1550 5100 50  0001 C CNN
F 3 "" H 1550 5100 50  0001 C CNN
	1    1550 5100
	1    0    0    -1  
$EndComp
$Comp
L Device:R R?
U 1 1 5E623F81
P 1550 4600
AR Path="/5E623F81" Ref="R?"  Part="1" 
AR Path="/5E5DB31C/5E623F81" Ref="R1001"  Part="1" 
F 0 "R1001" V 1343 4600 50  0000 C CNN
F 1 "100" V 1434 4600 50  0000 C CNN
F 2 "Resistor_SMD:R_1206_3216Metric" V 1480 4600 50  0001 C CNN
F 3 "~" H 1550 4600 50  0001 C CNN
	1    1550 4600
	0    1    1    0   
$EndComp
$Comp
L Device:R R?
U 1 1 5E623F87
P 1550 5600
AR Path="/5E623F87" Ref="R?"  Part="1" 
AR Path="/5E5DB31C/5E623F87" Ref="R1002"  Part="1" 
F 0 "R1002" V 1343 5600 50  0000 C CNN
F 1 "100" V 1434 5600 50  0000 C CNN
F 2 "Resistor_SMD:R_1206_3216Metric" V 1480 5600 50  0001 C CNN
F 3 "~" H 1550 5600 50  0001 C CNN
	1    1550 5600
	0    1    1    0   
$EndComp
$Comp
L Device:C C?
U 1 1 5E623F8D
P 1800 4850
AR Path="/5E623F8D" Ref="C?"  Part="1" 
AR Path="/5E5DB31C/5E623F8D" Ref="C1001"  Part="1" 
F 0 "C1001" H 1915 4896 50  0000 L CNN
F 1 "100p" H 1915 4805 50  0000 L CNN
F 2 "Capacitor_SMD:C_1206_3216Metric" H 1838 4700 50  0001 C CNN
F 3 "~" H 1800 4850 50  0001 C CNN
	1    1800 4850
	1    0    0    -1  
$EndComp
$Comp
L Device:C C?
U 1 1 5E623F93
P 1800 5300
AR Path="/5E623F93" Ref="C?"  Part="1" 
AR Path="/5E5DB31C/5E623F93" Ref="C1002"  Part="1" 
F 0 "C1002" H 1915 5346 50  0000 L CNN
F 1 "100p" H 1915 5255 50  0000 L CNN
F 2 "Capacitor_SMD:C_1206_3216Metric" H 1838 5150 50  0001 C CNN
F 3 "~" H 1800 5300 50  0001 C CNN
	1    1800 5300
	1    0    0    -1  
$EndComp
Wire Wire Line
	1550 5050 1550 5100
Wire Wire Line
	1550 5050 1800 5050
Wire Wire Line
	1800 5000 1800 5050
Connection ~ 1800 5050
Wire Wire Line
	1800 5050 2150 5050
Wire Wire Line
	1800 5050 1800 5150
Wire Wire Line
	1700 5600 1800 5600
Wire Wire Line
	1800 5600 1800 5450
Wire Wire Line
	1800 5600 2500 5600
Connection ~ 1800 5600
Wire Wire Line
	1700 4600 1800 4600
Wire Wire Line
	1800 4600 1800 4700
Wire Wire Line
	1800 4600 2500 4600
Connection ~ 1800 4600
$Comp
L Device:R R?
U 1 1 5E623FA8
P 7250 5050
AR Path="/5E623FA8" Ref="R?"  Part="1" 
AR Path="/5E5DB31C/5E623FA8" Ref="R1018"  Part="1" 
F 0 "R1018" H 7320 5096 50  0000 L CNN
F 1 "7320" H 7320 5005 50  0000 L CNN
F 2 "Resistor_SMD:R_0805_2012Metric" V 7180 5050 50  0001 C CNN
F 3 "~" H 7250 5050 50  0001 C CNN
	1    7250 5050
	1    0    0    -1  
$EndComp
Wire Wire Line
	6950 5500 7250 5500
Wire Wire Line
	7250 5500 7250 5200
$Comp
L SamacSys_Parts:SY-12-K K?
U 1 1 5E623FB1
P 8600 3600
AR Path="/5E623FB1" Ref="K?"  Part="1" 
AR Path="/5E5DB31C/5E623FB1" Ref="K1002"  Part="1" 
F 0 "K1002" V 8333 3700 50  0000 C CNN
F 1 "SY-12-K" V 8424 3700 50  0000 C CNN
F 2 "SamacSys_Parts:SY-12-K" H 9350 3700 50  0001 L CNN
F 3 "https://componentsearchengine.com/Datasheets/1/SY-12-K.pdf" H 9350 3600 50  0001 L CNN
F 4 "" H 9350 3400 50  0001 L CNN "Height"
	1    8600 3600
	0    -1   1    0   
$EndComp
Wire Wire Line
	8800 4100 8850 4100
Wire Wire Line
	8850 4100 8850 4200
Wire Wire Line
	8850 4200 8800 4200
$Comp
L Device:R R?
U 1 1 5E623FBA
P 8500 4500
AR Path="/5E623FBA" Ref="R?"  Part="1" 
AR Path="/5E5DB31C/5E623FBA" Ref="R1021"  Part="1" 
F 0 "R1021" V 8600 4450 50  0000 L CNN
F 1 "182" V 8700 4450 50  0000 L CNN
F 2 "Resistor_SMD:R_0805_2012Metric" V 8430 4500 50  0001 C CNN
F 3 "~" H 8500 4500 50  0001 C CNN
	1    8500 4500
	0    1    1    0   
$EndComp
$Comp
L Device:R R?
U 1 1 5E623FC0
P 8150 5050
AR Path="/5E623FC0" Ref="R?"  Part="1" 
AR Path="/5E5DB31C/5E623FC0" Ref="R1020"  Part="1" 
F 0 "R1020" H 8220 5096 50  0000 L CNN
F 1 "3400" H 8220 5005 50  0000 L CNN
F 2 "Resistor_SMD:R_0805_2012Metric" V 8080 5050 50  0001 C CNN
F 3 "~" H 8150 5050 50  0001 C CNN
	1    8150 5050
	1    0    0    -1  
$EndComp
Wire Wire Line
	7250 5500 8150 5500
Wire Wire Line
	8150 5500 8150 5200
Connection ~ 7250 5500
$Comp
L SamacSys_Parts:SY-12-K K?
U 1 1 5E623FCA
P 9400 3600
AR Path="/5E623FCA" Ref="K?"  Part="1" 
AR Path="/5E5DB31C/5E623FCA" Ref="K1003"  Part="1" 
F 0 "K1003" V 9133 3700 50  0000 C CNN
F 1 "SY-12-K" V 9224 3700 50  0000 C CNN
F 2 "SamacSys_Parts:SY-12-K" H 10150 3700 50  0001 L CNN
F 3 "https://componentsearchengine.com/Datasheets/1/SY-12-K.pdf" H 10150 3600 50  0001 L CNN
F 4 "" H 10150 3400 50  0001 L CNN "Height"
	1    9400 3600
	0    -1   1    0   
$EndComp
$Comp
L SamacSys_Parts:SY-12-K K?
U 1 1 5E623FD1
P 10200 3600
AR Path="/5E623FD1" Ref="K?"  Part="1" 
AR Path="/5E5DB31C/5E623FD1" Ref="K1004"  Part="1" 
F 0 "K1004" V 9933 3700 50  0000 C CNN
F 1 "SY-12-K" V 10024 3700 50  0000 C CNN
F 2 "SamacSys_Parts:SY-12-K" H 10950 3700 50  0001 L CNN
F 3 "https://componentsearchengine.com/Datasheets/1/SY-12-K.pdf" H 10950 3600 50  0001 L CNN
F 4 "" H 10950 3400 50  0001 L CNN "Height"
	1    10200 3600
	0    -1   1    0   
$EndComp
$Comp
L SamacSys_Parts:SY-12-K K?
U 1 1 5E623FD8
P 11000 3600
AR Path="/5E623FD8" Ref="K?"  Part="1" 
AR Path="/5E5DB31C/5E623FD8" Ref="K1005"  Part="1" 
F 0 "K1005" V 10733 3700 50  0000 C CNN
F 1 "SY-12-K" V 10824 3700 50  0000 C CNN
F 2 "SamacSys_Parts:SY-12-K" H 11750 3700 50  0001 L CNN
F 3 "https://componentsearchengine.com/Datasheets/1/SY-12-K.pdf" H 11750 3600 50  0001 L CNN
F 4 "" H 11750 3400 50  0001 L CNN "Height"
	1    11000 3600
	0    -1   1    0   
$EndComp
$Comp
L SamacSys_Parts:SY-12-K K?
U 1 1 5E623FDF
P 11800 3600
AR Path="/5E623FDF" Ref="K?"  Part="1" 
AR Path="/5E5DB31C/5E623FDF" Ref="K1006"  Part="1" 
F 0 "K1006" V 11533 3700 50  0000 C CNN
F 1 "SY-12-K" V 11624 3700 50  0000 C CNN
F 2 "SamacSys_Parts:SY-12-K" H 12550 3700 50  0001 L CNN
F 3 "https://componentsearchengine.com/Datasheets/1/SY-12-K.pdf" H 12550 3600 50  0001 L CNN
F 4 "" H 12550 3400 50  0001 L CNN "Height"
	1    11800 3600
	0    -1   1    0   
$EndComp
Wire Wire Line
	9600 4200 9650 4200
Wire Wire Line
	9650 4200 9650 4100
Wire Wire Line
	9650 4100 9600 4100
Wire Wire Line
	10400 4200 10450 4200
Wire Wire Line
	10400 4100 10450 4100
Wire Wire Line
	10450 4100 10450 4200
Wire Wire Line
	11200 4200 11250 4200
Wire Wire Line
	11200 4100 11250 4100
Wire Wire Line
	11250 4100 11250 4200
Wire Wire Line
	12000 4100 12050 4100
Wire Wire Line
	12050 4100 12050 4200
Wire Wire Line
	12050 4200 12000 4200
$Comp
L Device:R R?
U 1 1 5E623FF1
P 9300 4500
AR Path="/5E623FF1" Ref="R?"  Part="1" 
AR Path="/5E5DB31C/5E623FF1" Ref="R1023"  Part="1" 
F 0 "R1023" V 9400 4450 50  0000 L CNN
F 1 "324" V 9500 4450 50  0000 L CNN
F 2 "Resistor_SMD:R_0805_2012Metric" V 9230 4500 50  0001 C CNN
F 3 "~" H 9300 4500 50  0001 C CNN
	1    9300 4500
	0    1    1    0   
$EndComp
$Comp
L Device:R R?
U 1 1 5E623FF7
P 10100 4500
AR Path="/5E623FF7" Ref="R?"  Part="1" 
AR Path="/5E5DB31C/5E623FF7" Ref="R1025"  Part="1" 
F 0 "R1025" V 10200 4450 50  0000 L CNN
F 1 "536" V 10300 4450 50  0000 L CNN
F 2 "Resistor_SMD:R_0805_2012Metric" V 10030 4500 50  0001 C CNN
F 3 "~" H 10100 4500 50  0001 C CNN
	1    10100 4500
	0    1    1    0   
$EndComp
$Comp
L Device:R R?
U 1 1 5E623FFD
P 10900 4500
AR Path="/5E623FFD" Ref="R?"  Part="1" 
AR Path="/5E5DB31C/5E623FFD" Ref="R1027"  Part="1" 
F 0 "R1027" V 11000 4450 50  0000 L CNN
F 1 "768" V 11100 4450 50  0000 L CNN
F 2 "Resistor_SMD:R_0805_2012Metric" V 10830 4500 50  0001 C CNN
F 3 "~" H 10900 4500 50  0001 C CNN
	1    10900 4500
	0    1    1    0   
$EndComp
$Comp
L Device:R R?
U 1 1 5E624003
P 11700 4850
AR Path="/5E624003" Ref="R?"  Part="1" 
AR Path="/5E5DB31C/5E624003" Ref="R1031"  Part="1" 
F 0 "R1031" V 11800 4800 50  0000 L CNN
F 1 "23k7" V 11900 4800 50  0000 L CNN
F 2 "Resistor_SMD:R_0805_2012Metric" V 11630 4850 50  0001 C CNN
F 3 "~" H 11700 4850 50  0001 C CNN
	1    11700 4850
	0    1    1    0   
$EndComp
$Comp
L Device:R R?
U 1 1 5E624009
P 8950 5050
AR Path="/5E624009" Ref="R?"  Part="1" 
AR Path="/5E5DB31C/5E624009" Ref="R1022"  Part="1" 
F 0 "R1022" H 9020 5096 50  0000 L CNN
F 1 "1500" H 9020 5005 50  0000 L CNN
F 2 "Resistor_SMD:R_0805_2012Metric" V 8880 5050 50  0001 C CNN
F 3 "~" H 8950 5050 50  0001 C CNN
	1    8950 5050
	1    0    0    -1  
$EndComp
$Comp
L Device:R R?
U 1 1 5E62400F
P 9750 5050
AR Path="/5E62400F" Ref="R?"  Part="1" 
AR Path="/5E5DB31C/5E62400F" Ref="R1024"  Part="1" 
F 0 "R1024" H 9820 5096 50  0000 L CNN
F 1 "590" H 9820 5005 50  0000 L CNN
F 2 "Resistor_SMD:R_0805_2012Metric" V 9680 5050 50  0001 C CNN
F 3 "~" H 9750 5050 50  0001 C CNN
	1    9750 5050
	1    0    0    -1  
$EndComp
$Comp
L Device:R R?
U 1 1 5E624015
P 10550 5050
AR Path="/5E624015" Ref="R?"  Part="1" 
AR Path="/5E5DB31C/5E624015" Ref="R1026"  Part="1" 
F 0 "R1026" H 10620 5096 50  0000 L CNN
F 1 "169" H 10620 5005 50  0000 L CNN
F 2 "Resistor_SMD:R_0805_2012Metric" V 10480 5050 50  0001 C CNN
F 3 "~" H 10550 5050 50  0001 C CNN
	1    10550 5050
	1    0    0    -1  
$EndComp
$Comp
L Device:R R?
U 1 1 5E62401B
P 11350 5050
AR Path="/5E62401B" Ref="R?"  Part="1" 
AR Path="/5E5DB31C/5E62401B" Ref="R1029"  Part="1" 
F 0 "R1029" H 11420 5096 50  0000 L CNN
F 1 "22R6" H 11420 5005 50  0000 L CNN
F 2 "Resistor_SMD:R_0805_2012Metric" V 11280 5050 50  0001 C CNN
F 3 "~" H 11350 5050 50  0001 C CNN
	1    11350 5050
	1    0    0    -1  
$EndComp
Wire Wire Line
	8150 5500 8950 5500
Wire Wire Line
	8950 5500 8950 5200
Connection ~ 8150 5500
Wire Wire Line
	8950 5500 9750 5500
Wire Wire Line
	9750 5500 9750 5200
Connection ~ 8950 5500
Wire Wire Line
	9750 5500 10550 5500
Wire Wire Line
	10550 5500 10550 5200
Connection ~ 9750 5500
Wire Wire Line
	10550 5500 11350 5500
Wire Wire Line
	11350 5500 11350 5200
Connection ~ 10550 5500
$Comp
L Device:R R?
U 1 1 5E62402D
P 10900 4850
AR Path="/5E62402D" Ref="R?"  Part="1" 
AR Path="/5E5DB31C/5E62402D" Ref="R1028"  Part="1" 
F 0 "R1028" V 11000 4800 50  0000 L CNN
F 1 "40k2" V 11100 4800 50  0000 L CNN
F 2 "Resistor_SMD:R_0805_2012Metric" V 10830 4850 50  0001 C CNN
F 3 "~" H 10900 4850 50  0001 C CNN
	1    10900 4850
	0    1    1    0   
$EndComp
$Comp
L Device:R R?
U 1 1 5E624033
P 11700 4500
AR Path="/5E624033" Ref="R?"  Part="1" 
AR Path="/5E5DB31C/5E624033" Ref="R1030"  Part="1" 
F 0 "R1030" V 11800 4450 50  0000 L CNN
F 1 "887" V 11900 4450 50  0000 L CNN
F 2 "Resistor_SMD:R_0805_2012Metric" V 11630 4500 50  0001 C CNN
F 3 "~" H 11700 4500 50  0001 C CNN
	1    11700 4500
	0    1    1    0   
$EndComp
Wire Wire Line
	12150 5500 11350 5500
Connection ~ 11350 5500
Wire Wire Line
	12050 4200 12050 4500
Wire Wire Line
	12050 4500 12150 4500
Connection ~ 12050 4200
Wire Wire Line
	11400 3700 11350 3700
Wire Wire Line
	11350 3700 11350 3150
$Comp
L SamacSys_Parts:SS16HE D?
U 1 1 5E624048
P 11400 3150
AR Path="/5E624048" Ref="D?"  Part="1" 
AR Path="/5E5DB31C/5E624048" Ref="D1006"  Part="1" 
F 0 "D1006" H 11700 3415 50  0000 C CNN
F 1 "SS16HE" H 11700 3324 50  0000 C CNN
F 2 "SamacSys_Parts:SS16HE" H 11850 3150 50  0001 L CNN
F 3 "https://www.onsemi.com/pub/Collateral/SS13HE-D.PDF" H 11850 3050 50  0001 L CNN
F 4 "ON Semi 60V 1A, Diode, 2-Pin SOD-323HE SS16HE" H 11850 2950 50  0001 L CNN "Description"
F 5 "0.75" H 11850 2850 50  0001 L CNN "Height"
F 6 "ON Semiconductor" H 11850 2750 50  0001 L CNN "Manufacturer_Name"
F 7 "SS16HE" H 11850 2650 50  0001 L CNN "Manufacturer_Part_Number"
F 8 "512-SS16HE" H 11850 2550 50  0001 L CNN "Mouser Part Number"
F 9 "https://www.mouser.com/Search/Refine.aspx?Keyword=512-SS16HE" H 11850 2450 50  0001 L CNN "Mouser Price/Stock"
F 10 "1867888P" H 11850 2350 50  0001 L CNN "RS Part Number"
F 11 "http://uk.rs-online.com/web/p/products/1867888P" H 11850 2250 50  0001 L CNN "RS Price/Stock"
	1    11400 3150
	1    0    0    -1  
$EndComp
$Comp
L SamacSys_Parts:SS16HE D?
U 1 1 5E624056
P 10600 3150
AR Path="/5E624056" Ref="D?"  Part="1" 
AR Path="/5E5DB31C/5E624056" Ref="D1005"  Part="1" 
F 0 "D1005" H 10900 3415 50  0000 C CNN
F 1 "SS16HE" H 10900 3324 50  0000 C CNN
F 2 "SamacSys_Parts:SS16HE" H 11050 3150 50  0001 L CNN
F 3 "https://www.onsemi.com/pub/Collateral/SS13HE-D.PDF" H 11050 3050 50  0001 L CNN
F 4 "ON Semi 60V 1A, Diode, 2-Pin SOD-323HE SS16HE" H 11050 2950 50  0001 L CNN "Description"
F 5 "0.75" H 11050 2850 50  0001 L CNN "Height"
F 6 "ON Semiconductor" H 11050 2750 50  0001 L CNN "Manufacturer_Name"
F 7 "SS16HE" H 11050 2650 50  0001 L CNN "Manufacturer_Part_Number"
F 8 "512-SS16HE" H 11050 2550 50  0001 L CNN "Mouser Part Number"
F 9 "https://www.mouser.com/Search/Refine.aspx?Keyword=512-SS16HE" H 11050 2450 50  0001 L CNN "Mouser Price/Stock"
F 10 "1867888P" H 11050 2350 50  0001 L CNN "RS Part Number"
F 11 "http://uk.rs-online.com/web/p/products/1867888P" H 11050 2250 50  0001 L CNN "RS Price/Stock"
	1    10600 3150
	1    0    0    -1  
$EndComp
$Comp
L SamacSys_Parts:SS16HE D?
U 1 1 5E624064
P 9800 3150
AR Path="/5E624064" Ref="D?"  Part="1" 
AR Path="/5E5DB31C/5E624064" Ref="D1004"  Part="1" 
F 0 "D1004" H 10100 3415 50  0000 C CNN
F 1 "SS16HE" H 10100 3324 50  0000 C CNN
F 2 "SamacSys_Parts:SS16HE" H 10250 3150 50  0001 L CNN
F 3 "https://www.onsemi.com/pub/Collateral/SS13HE-D.PDF" H 10250 3050 50  0001 L CNN
F 4 "ON Semi 60V 1A, Diode, 2-Pin SOD-323HE SS16HE" H 10250 2950 50  0001 L CNN "Description"
F 5 "0.75" H 10250 2850 50  0001 L CNN "Height"
F 6 "ON Semiconductor" H 10250 2750 50  0001 L CNN "Manufacturer_Name"
F 7 "SS16HE" H 10250 2650 50  0001 L CNN "Manufacturer_Part_Number"
F 8 "512-SS16HE" H 10250 2550 50  0001 L CNN "Mouser Part Number"
F 9 "https://www.mouser.com/Search/Refine.aspx?Keyword=512-SS16HE" H 10250 2450 50  0001 L CNN "Mouser Price/Stock"
F 10 "1867888P" H 10250 2350 50  0001 L CNN "RS Part Number"
F 11 "http://uk.rs-online.com/web/p/products/1867888P" H 10250 2250 50  0001 L CNN "RS Price/Stock"
	1    9800 3150
	1    0    0    -1  
$EndComp
$Comp
L SamacSys_Parts:SS16HE D?
U 1 1 5E624072
P 9050 3150
AR Path="/5E624072" Ref="D?"  Part="1" 
AR Path="/5E5DB31C/5E624072" Ref="D1003"  Part="1" 
F 0 "D1003" H 9350 3415 50  0000 C CNN
F 1 "SS16HE" H 9350 3324 50  0000 C CNN
F 2 "SamacSys_Parts:SS16HE" H 9500 3150 50  0001 L CNN
F 3 "https://www.onsemi.com/pub/Collateral/SS13HE-D.PDF" H 9500 3050 50  0001 L CNN
F 4 "ON Semi 60V 1A, Diode, 2-Pin SOD-323HE SS16HE" H 9500 2950 50  0001 L CNN "Description"
F 5 "0.75" H 9500 2850 50  0001 L CNN "Height"
F 6 "ON Semiconductor" H 9500 2750 50  0001 L CNN "Manufacturer_Name"
F 7 "SS16HE" H 9500 2650 50  0001 L CNN "Manufacturer_Part_Number"
F 8 "512-SS16HE" H 9500 2550 50  0001 L CNN "Mouser Part Number"
F 9 "https://www.mouser.com/Search/Refine.aspx?Keyword=512-SS16HE" H 9500 2450 50  0001 L CNN "Mouser Price/Stock"
F 10 "1867888P" H 9500 2350 50  0001 L CNN "RS Part Number"
F 11 "http://uk.rs-online.com/web/p/products/1867888P" H 9500 2250 50  0001 L CNN "RS Price/Stock"
	1    9050 3150
	1    0    0    -1  
$EndComp
$Comp
L SamacSys_Parts:SS16HE D?
U 1 1 5E624080
P 8200 3150
AR Path="/5E624080" Ref="D?"  Part="1" 
AR Path="/5E5DB31C/5E624080" Ref="D1002"  Part="1" 
F 0 "D1002" H 8500 3415 50  0000 C CNN
F 1 "SS16HE" H 8500 3324 50  0000 C CNN
F 2 "SamacSys_Parts:SS16HE" H 8650 3150 50  0001 L CNN
F 3 "https://www.onsemi.com/pub/Collateral/SS13HE-D.PDF" H 8650 3050 50  0001 L CNN
F 4 "ON Semi 60V 1A, Diode, 2-Pin SOD-323HE SS16HE" H 8650 2950 50  0001 L CNN "Description"
F 5 "0.75" H 8650 2850 50  0001 L CNN "Height"
F 6 "ON Semiconductor" H 8650 2750 50  0001 L CNN "Manufacturer_Name"
F 7 "SS16HE" H 8650 2650 50  0001 L CNN "Manufacturer_Part_Number"
F 8 "512-SS16HE" H 8650 2550 50  0001 L CNN "Mouser Part Number"
F 9 "https://www.mouser.com/Search/Refine.aspx?Keyword=512-SS16HE" H 8650 2450 50  0001 L CNN "Mouser Price/Stock"
F 10 "1867888P" H 8650 2350 50  0001 L CNN "RS Part Number"
F 11 "http://uk.rs-online.com/web/p/products/1867888P" H 8650 2250 50  0001 L CNN "RS Price/Stock"
	1    8200 3150
	1    0    0    -1  
$EndComp
$Comp
L SamacSys_Parts:SS16HE D?
U 1 1 5E62408E
P 7400 3150
AR Path="/5E62408E" Ref="D?"  Part="1" 
AR Path="/5E5DB31C/5E62408E" Ref="D1001"  Part="1" 
F 0 "D1001" H 7700 3415 50  0000 C CNN
F 1 "SS16HE" H 7700 3324 50  0000 C CNN
F 2 "SamacSys_Parts:SS16HE" H 7850 3150 50  0001 L CNN
F 3 "https://www.onsemi.com/pub/Collateral/SS13HE-D.PDF" H 7850 3050 50  0001 L CNN
F 4 "ON Semi 60V 1A, Diode, 2-Pin SOD-323HE SS16HE" H 7850 2950 50  0001 L CNN "Description"
F 5 "0.75" H 7850 2850 50  0001 L CNN "Height"
F 6 "ON Semiconductor" H 7850 2750 50  0001 L CNN "Manufacturer_Name"
F 7 "SS16HE" H 7850 2650 50  0001 L CNN "Manufacturer_Part_Number"
F 8 "512-SS16HE" H 7850 2550 50  0001 L CNN "Mouser Part Number"
F 9 "https://www.mouser.com/Search/Refine.aspx?Keyword=512-SS16HE" H 7850 2450 50  0001 L CNN "Mouser Price/Stock"
F 10 "1867888P" H 7850 2350 50  0001 L CNN "RS Part Number"
F 11 "http://uk.rs-online.com/web/p/products/1867888P" H 7850 2250 50  0001 L CNN "RS Price/Stock"
	1    7400 3150
	1    0    0    -1  
$EndComp
Wire Wire Line
	11400 3150 11350 3150
Connection ~ 11350 3150
Wire Wire Line
	11350 3150 11350 2750
Wire Wire Line
	11350 2750 10550 2750
Wire Wire Line
	10550 2750 10550 3150
Wire Wire Line
	10550 3150 10600 3150
Wire Wire Line
	10600 3700 10550 3700
Wire Wire Line
	10550 3700 10550 3150
Connection ~ 10550 3150
Wire Wire Line
	9800 3700 9750 3700
Wire Wire Line
	9750 3700 9750 3150
Wire Wire Line
	9750 3150 9800 3150
Wire Wire Line
	10550 2750 9750 2750
Wire Wire Line
	9750 2750 9750 3150
Connection ~ 10550 2750
Connection ~ 9750 3150
Wire Wire Line
	9600 3700 9650 3700
Wire Wire Line
	9650 3700 9650 3150
Wire Wire Line
	10400 3700 10400 3150
Wire Wire Line
	11200 3150 11250 3150
Wire Wire Line
	11250 3150 11250 3700
Wire Wire Line
	11250 3700 11200 3700
Wire Wire Line
	12000 3700 12050 3700
Wire Wire Line
	12050 3700 12050 3150
Wire Wire Line
	12050 3150 12000 3150
Wire Wire Line
	8800 3700 8850 3700
Wire Wire Line
	8850 3700 8850 3150
Wire Wire Line
	8850 3150 8800 3150
Wire Wire Line
	9000 3700 8950 3700
Wire Wire Line
	8950 3700 8950 3150
Wire Wire Line
	8950 3150 9050 3150
Wire Wire Line
	8950 3150 8950 2750
Wire Wire Line
	8950 2750 9750 2750
Connection ~ 8950 3150
Connection ~ 9750 2750
Wire Wire Line
	8950 2750 8150 2750
Wire Wire Line
	8150 2750 8150 3150
Wire Wire Line
	8150 3150 8200 3150
Connection ~ 8950 2750
Wire Wire Line
	8150 3150 8150 3700
Wire Wire Line
	8150 3700 8200 3700
Connection ~ 8150 3150
Wire Wire Line
	7350 3150 7400 3150
Wire Wire Line
	7350 3150 7350 2750
Wire Wire Line
	7350 2750 8150 2750
Connection ~ 8150 2750
Wire Wire Line
	8050 3150 8000 3150
Wire Wire Line
	12050 3150 12050 2600
Connection ~ 12050 3150
Wire Wire Line
	11250 3150 11250 2600
Connection ~ 11250 3150
Wire Wire Line
	10400 3150 10400 2600
Connection ~ 10400 3150
Wire Wire Line
	9650 3150 9650 2600
Connection ~ 9650 3150
Wire Wire Line
	8850 3150 8850 2600
Connection ~ 8850 3150
Wire Wire Line
	8050 3150 8050 2600
Wire Wire Line
	8050 4200 8000 4200
Wire Wire Line
	8050 4200 8050 4100
Wire Wire Line
	8050 4100 8000 4100
Wire Wire Line
	6450 4500 7350 4500
Wire Wire Line
	7350 4200 7350 4500
Connection ~ 7350 4500
Wire Wire Line
	7350 4500 7550 4500
Connection ~ 6450 4500
Wire Wire Line
	7850 4500 8050 4500
Wire Wire Line
	8050 4500 8050 4200
Connection ~ 8050 4200
Wire Wire Line
	8050 4500 8350 4500
Connection ~ 8050 4500
Wire Wire Line
	8650 4500 8850 4500
Wire Wire Line
	8850 4500 8850 4200
Connection ~ 8850 4200
Wire Wire Line
	8850 4500 9150 4500
Connection ~ 8850 4500
Wire Wire Line
	9450 4500 9650 4500
Wire Wire Line
	9650 4500 9650 4200
Connection ~ 9650 4200
Wire Wire Line
	9650 4500 9950 4500
Connection ~ 9650 4500
Wire Wire Line
	10250 4500 10450 4500
Wire Wire Line
	10450 4500 10450 4200
Connection ~ 10450 4200
Wire Wire Line
	10450 4500 10650 4500
Connection ~ 10450 4500
Wire Wire Line
	11050 4500 11150 4500
Wire Wire Line
	11250 4500 11250 4200
Connection ~ 11250 4200
Wire Wire Line
	11250 4500 11450 4500
Connection ~ 11250 4500
Wire Wire Line
	11850 4500 11950 4500
Connection ~ 12050 4500
Wire Wire Line
	11850 4850 11950 4850
Wire Wire Line
	10750 4850 10650 4850
Wire Wire Line
	10650 4850 10650 4500
Connection ~ 10650 4500
Wire Wire Line
	10650 4500 10750 4500
Wire Wire Line
	11550 4850 11450 4850
Wire Wire Line
	11450 4850 11450 4500
Connection ~ 11450 4500
Wire Wire Line
	11450 4500 11550 4500
Wire Wire Line
	11050 4850 11150 4850
Wire Wire Line
	11150 4850 11150 4500
Connection ~ 11150 4500
Wire Wire Line
	11150 4500 11250 4500
Wire Wire Line
	11950 4850 11950 4500
Connection ~ 11950 4500
Wire Wire Line
	11950 4500 12050 4500
Wire Wire Line
	7350 4200 7400 4200
Wire Wire Line
	7250 4000 7400 4000
Wire Wire Line
	7250 4000 7250 4900
Wire Wire Line
	8200 4000 8150 4000
Wire Wire Line
	8150 4000 8150 4900
Wire Wire Line
	9000 4000 8950 4000
Wire Wire Line
	8950 4000 8950 4900
Wire Wire Line
	8050 4200 8200 4200
Wire Wire Line
	8850 4200 9000 4200
Wire Wire Line
	9650 4200 9800 4200
Wire Wire Line
	10450 4200 10600 4200
Wire Wire Line
	11250 4200 11400 4200
Wire Wire Line
	11400 4000 11350 4000
Wire Wire Line
	11350 4000 11350 4900
Wire Wire Line
	10600 4000 10550 4000
Wire Wire Line
	10550 4000 10550 4900
Wire Wire Line
	9800 4000 9750 4000
Wire Wire Line
	9750 4000 9750 4900
Wire Wire Line
	8050 3150 8050 3700
Wire Wire Line
	8050 3700 8000 3700
Connection ~ 8050 3150
Wire Wire Line
	7400 3700 7350 3700
Wire Wire Line
	7350 3700 7350 3150
Connection ~ 7350 3150
$Comp
L Device:R R?
U 1 1 5E62411F
P 7700 4500
AR Path="/5E62411F" Ref="R?"  Part="1" 
AR Path="/5E5DB31C/5E62411F" Ref="R1019"  Part="1" 
F 0 "R1019" V 7800 4450 50  0000 L CNN
F 1 "97R6" V 7900 4400 50  0000 L CNN
F 2 "Resistor_SMD:R_0805_2012Metric" V 7630 4500 50  0001 C CNN
F 3 "~" H 7700 4500 50  0001 C CNN
	1    7700 4500
	0    1    1    0   
$EndComp
$Comp
L SamacSys_Parts:SY-12-K K?
U 1 1 5E624126
P 14200 3650
AR Path="/5E624126" Ref="K?"  Part="1" 
AR Path="/5E5DB31C/5E624126" Ref="K1007"  Part="1" 
F 0 "K1007" V 13933 3750 50  0000 C CNN
F 1 "SY-12-K" V 14024 3750 50  0000 C CNN
F 2 "SamacSys_Parts:SY-12-K" H 14950 3750 50  0001 L CNN
F 3 "https://componentsearchengine.com/Datasheets/1/SY-12-K.pdf" H 14950 3650 50  0001 L CNN
F 4 "" H 14950 3450 50  0001 L CNN "Height"
	1    14200 3650
	0    -1   1    0   
$EndComp
Wire Wire Line
	13800 4050 13700 4050
Wire Wire Line
	14400 4150 14450 4150
Wire Wire Line
	14450 4150 14450 4250
Wire Wire Line
	14450 4250 14400 4250
Connection ~ 14450 4250
$Comp
L SamacSys_Parts:SS16HE D?
U 1 1 5E62413A
P 13800 3150
AR Path="/5E62413A" Ref="D?"  Part="1" 
AR Path="/5E5DB31C/5E62413A" Ref="D1007"  Part="1" 
F 0 "D1007" H 14100 3415 50  0000 C CNN
F 1 "SS16HE" H 14100 3324 50  0000 C CNN
F 2 "SamacSys_Parts:SS16HE" H 14250 3150 50  0001 L CNN
F 3 "https://www.onsemi.com/pub/Collateral/SS13HE-D.PDF" H 14250 3050 50  0001 L CNN
F 4 "ON Semi 60V 1A, Diode, 2-Pin SOD-323HE SS16HE" H 14250 2950 50  0001 L CNN "Description"
F 5 "0.75" H 14250 2850 50  0001 L CNN "Height"
F 6 "ON Semiconductor" H 14250 2750 50  0001 L CNN "Manufacturer_Name"
F 7 "SS16HE" H 14250 2650 50  0001 L CNN "Manufacturer_Part_Number"
F 8 "512-SS16HE" H 14250 2550 50  0001 L CNN "Mouser Part Number"
F 9 "https://www.mouser.com/Search/Refine.aspx?Keyword=512-SS16HE" H 14250 2450 50  0001 L CNN "Mouser Price/Stock"
F 10 "1867888P" H 14250 2350 50  0001 L CNN "RS Part Number"
F 11 "http://uk.rs-online.com/web/p/products/1867888P" H 14250 2250 50  0001 L CNN "RS Price/Stock"
	1    13800 3150
	1    0    0    -1  
$EndComp
Wire Wire Line
	14400 3750 14450 3750
Wire Wire Line
	14450 3750 14450 3150
Wire Wire Line
	14450 3150 14400 3150
Wire Wire Line
	13800 3750 13750 3750
Wire Wire Line
	13750 3750 13750 3150
Wire Wire Line
	13750 3150 13800 3150
Wire Wire Line
	11350 2750 13750 2750
Wire Wire Line
	13750 2750 13750 3150
Connection ~ 13750 3150
Wire Wire Line
	14450 3150 14450 2600
Connection ~ 14450 3150
Connection ~ 11350 2750
Wire Wire Line
	14450 5500 15100 5500
$Comp
L Device:R R?
U 1 1 5E62414F
P 13750 4500
AR Path="/5E62414F" Ref="R?"  Part="1" 
AR Path="/5E5DB31C/5E62414F" Ref="R1038"  Part="1" 
F 0 "R1038" V 13950 4500 50  0000 C CNN
F 1 "22" V 13850 4500 50  0000 C CNN
F 2 "Resistor_SMD:R_1206_3216Metric" V 13680 4500 50  0001 C CNN
F 3 "~" H 13750 4500 50  0001 C CNN
	1    13750 4500
	0    1    1    0   
$EndComp
Wire Wire Line
	13900 4500 13950 4500
Wire Wire Line
	13750 2750 13750 2600
Connection ~ 13750 2750
Wire Wire Line
	13350 4500 13600 4500
Wire Wire Line
	13700 4050 13700 4400
Wire Wire Line
	13700 4400 13950 4400
Wire Wire Line
	13950 4400 13950 4500
Connection ~ 13950 4500
$Comp
L Amplifier_Operational:LM4562 U?
U 1 1 5E62415E
P 3300 4700
AR Path="/5E62415E" Ref="U?"  Part="1" 
AR Path="/5E5DB31C/5E62415E" Ref="U1001"  Part="1" 
F 0 "U1001" H 3300 5067 50  0000 C CNN
F 1 "OPA1612" H 3300 4976 50  0000 C CNN
F 2 "Package_SO:SOIC-8_3.9x4.9mm_P1.27mm" H 3300 4700 50  0001 C CNN
F 3 "http://www.ti.com/lit/ds/symlink/lm4562.pdf" H 3300 4700 50  0001 C CNN
	1    3300 4700
	1    0    0    -1  
$EndComp
$Comp
L Amplifier_Operational:LM4562 U?
U 2 1 5E624164
P 3300 5500
AR Path="/5E624164" Ref="U?"  Part="2" 
AR Path="/5E5DB31C/5E624164" Ref="U1001"  Part="2" 
F 0 "U1001" H 3300 5867 50  0000 C CNN
F 1 "OPA1612" H 3300 5776 50  0000 C CNN
F 2 "Package_SO:SOIC-8_3.9x4.9mm_P1.27mm" H 3300 5500 50  0001 C CNN
F 3 "http://www.ti.com/lit/ds/symlink/lm4562.pdf" H 3300 5500 50  0001 C CNN
	2    3300 5500
	1    0    0    1   
$EndComp
$Comp
L Amplifier_Operational:LM4562 U?
U 1 1 5E62416A
P 6100 5100
AR Path="/5E62416A" Ref="U?"  Part="1" 
AR Path="/5E5DB31C/5E62416A" Ref="U1003"  Part="1" 
F 0 "U1003" H 6100 4733 50  0000 C CNN
F 1 "OPA1612" H 6100 4824 50  0000 C CNN
F 2 "Package_SO:SOIC-8_3.9x4.9mm_P1.27mm" H 6100 5100 50  0001 C CNN
F 3 "http://www.ti.com/lit/ds/symlink/lm4562.pdf" H 6100 5100 50  0001 C CNN
	1    6100 5100
	1    0    0    1   
$EndComp
$Comp
L Amplifier_Operational:LM4562 U?
U 2 1 5E624170
P 13000 5000
AR Path="/5E624170" Ref="U?"  Part="2" 
AR Path="/5E5DB31C/5E624170" Ref="U1003"  Part="2" 
F 0 "U1003" H 13000 4633 50  0000 C CNN
F 1 "OPA1612" H 13000 4724 50  0000 C CNN
F 2 "Package_SO:SOIC-8_3.9x4.9mm_P1.27mm" H 13000 5000 50  0001 C CNN
F 3 "http://www.ti.com/lit/ds/symlink/lm4562.pdf" H 13000 5000 50  0001 C CNN
	2    13000 5000
	1    0    0    1   
$EndComp
Wire Wire Line
	1300 5600 1400 5600
$Comp
L Amplifier_Operational:OPA134 U?
U 1 1 5E6241AC
P 4950 6750
AR Path="/5E6241AC" Ref="U?"  Part="1" 
AR Path="/5E5DB31C/5E6241AC" Ref="U1002"  Part="1" 
F 0 "U1002" H 5350 6800 50  0000 L CNN
F 1 "OPA192" H 5294 6705 50  0000 L CNN
F 2 "Package_SO:SOIC-8_3.9x4.9mm_P1.27mm" H 5000 6800 50  0001 C CNN
F 3 "http://www.ti.com/lit/ds/symlink/opa134.pdf" H 5000 6900 50  0001 C CNN
	1    4950 6750
	1    0    0    -1  
$EndComp
Wire Wire Line
	4400 6850 4600 6850
Wire Wire Line
	4600 6850 4600 7550
Connection ~ 4600 6850
Wire Wire Line
	4600 6850 4650 6850
Wire Wire Line
	4950 7050 4950 7100
Wire Wire Line
	4950 7100 5050 7100
Wire Wire Line
	5050 7100 5050 7050
$Comp
L power:GND #PWR?
U 1 1 5E6241B9
P 5100 7100
AR Path="/5E6241B9" Ref="#PWR?"  Part="1" 
AR Path="/5E5DB31C/5E6241B9" Ref="#PWR01004"  Part="1" 
F 0 "#PWR01004" H 5100 6850 50  0001 C CNN
F 1 "GND" V 5105 6972 50  0000 R CNN
F 2 "" H 5100 7100 50  0001 C CNN
F 3 "" H 5100 7100 50  0001 C CNN
	1    5100 7100
	0    -1   -1   0   
$EndComp
Wire Wire Line
	5100 7100 5050 7100
Connection ~ 5050 7100
Text GLabel 5850 7250 2    50   Input ~ 0
-15V_VC
Wire Wire Line
	4850 7250 4850 7050
Text GLabel 5850 6400 2    50   Input ~ 0
+15V_VC
Wire Wire Line
	4850 6400 4850 6450
Text GLabel 6750 7250 0    50   Input ~ 0
-15V_VC
Text GLabel 6750 6400 0    50   Input ~ 0
+15V_VC
$Comp
L Amplifier_Operational:LM4562 U?
U 3 1 5E6241E3
P 7700 6800
AR Path="/5E6241E3" Ref="U?"  Part="3" 
AR Path="/5E5DB31C/5E6241E3" Ref="U1003"  Part="3" 
F 0 "U1003" H 7658 6846 50  0000 L CNN
F 1 "OPA1612" H 7658 6755 50  0000 L CNN
F 2 "Package_SO:SOIC-8_3.9x4.9mm_P1.27mm" H 7700 6800 50  0001 C CNN
F 3 "http://www.ti.com/lit/ds/symlink/lm4562.pdf" H 7700 6800 50  0001 C CNN
	3    7700 6800
	1    0    0    -1  
$EndComp
$Comp
L Amplifier_Operational:LM4562 U?
U 3 1 5E6241E9
P 7100 6800
AR Path="/5E6241E9" Ref="U?"  Part="3" 
AR Path="/5E5DB31C/5E6241E9" Ref="U1001"  Part="3" 
F 0 "U1001" H 7058 6846 50  0000 L CNN
F 1 "OPA1612" H 7058 6755 50  0000 L CNN
F 2 "Package_SO:SOIC-8_3.9x4.9mm_P1.27mm" H 7100 6800 50  0001 C CNN
F 3 "http://www.ti.com/lit/ds/symlink/lm4562.pdf" H 7100 6800 50  0001 C CNN
	3    7100 6800
	1    0    0    -1  
$EndComp
Text GLabel 1300 5600 0    50   Input ~ 0
IV_OUT-
Text GLabel 1300 4600 0    50   Input ~ 0
IV_OUT+
Wire Wire Line
	1300 4600 1400 4600
Text GLabel 8050 2600 1    50   Input ~ 0
RY_1DB
Text GLabel 8850 2600 1    50   Input ~ 0
RY_2DB
Text GLabel 9650 2600 1    50   Input ~ 0
RY_4DB
Text GLabel 10400 2600 1    50   Input ~ 0
RY_8DB
Text GLabel 11250 2600 1    50   Input ~ 0
RY_16DB
Text GLabel 12050 2600 1    50   Input ~ 0
RY_32DB
Text GLabel 13750 2600 1    50   Input ~ 0
RY_12V
Wire Wire Line
	6750 7250 7000 7250
Wire Wire Line
	7000 7250 7600 7250
Connection ~ 7000 7250
Wire Wire Line
	6750 6400 7000 6400
Wire Wire Line
	7000 6400 7600 6400
Connection ~ 7000 6400
Wire Wire Line
	13950 4500 15100 4500
Wire Wire Line
	13950 5600 13950 5500
Wire Wire Line
	14350 5500 14450 5500
Connection ~ 14450 5500
Wire Wire Line
	13950 5500 14050 5500
Wire Wire Line
	14450 5150 14450 5500
Wire Wire Line
	14450 4250 14450 5150
Connection ~ 14450 5150
Wire Wire Line
	13850 5150 14450 5150
Connection ~ 13950 5500
Wire Wire Line
	13850 5500 13950 5500
$Comp
L Device:R R?
U 1 1 5E98506C
P 13700 5150
AR Path="/5E98506C" Ref="R?"  Part="1" 
AR Path="/5E5DB31C/5E98506C" Ref="R1036"  Part="1" 
F 0 "R1036" V 13493 5150 50  0000 C CNN
F 1 "Jumper" V 13584 5150 50  0000 C CNN
F 2 "Resistor_SMD:R_1206_3216Metric" V 13630 5150 50  0001 C CNN
F 3 "~" H 13700 5150 50  0001 C CNN
	1    13700 5150
	0    1    1    0   
$EndComp
$Comp
L Device:R R?
U 1 1 5E95829C
P 13700 5500
AR Path="/5E95829C" Ref="R?"  Part="1" 
AR Path="/5E5DB31C/5E95829C" Ref="R1037"  Part="1" 
F 0 "R1037" V 13493 5500 50  0000 C CNN
F 1 "Jumper" V 13584 5500 50  0000 C CNN
F 2 "Resistor_SMD:R_1206_3216Metric" V 13630 5500 50  0001 C CNN
F 3 "~" H 13700 5500 50  0001 C CNN
	1    13700 5500
	0    1    1    0   
$EndComp
Wire Wire Line
	13550 5150 13450 5150
Wire Wire Line
	13450 5150 13450 5500
Wire Wire Line
	13100 5500 13450 5500
Wire Wire Line
	13450 5500 13550 5500
Connection ~ 13450 5500
Text GLabel 14450 2600 1    50   Input ~ 0
RY_MUTE
Text GLabel 15100 4500 2    50   Input ~ 0
AOUT+
Text GLabel 15100 5500 2    50   Input ~ 0
AOUT-
Connection ~ 4050 4500
Wire Wire Line
	7000 6400 7000 6500
Wire Wire Line
	7600 6400 7600 6500
Wire Wire Line
	7000 7100 7000 7250
Wire Wire Line
	7600 7100 7600 7250
Wire Wire Line
	4850 6400 5850 6400
Wire Wire Line
	4850 7250 5850 7250
$EndSCHEMATC
